Division,WeightClassKg,Place,Name,Team,BodyweightKg,Best3SquatKg,Best3BenchKg,Best3DeadliftKg,TotalKg,Equipment,Event,Sex
Boys,51.71,1,Daniel Vela-Wences,Coahoma,47.72,77.11,52.16,86.18,215.46,Single-ply,SBD,M
Boys,55.79,1,Jaylon Luna,Ropesville Ropes,54.88,106.59,61.23,115.67,283.5,Single-ply,SBD,M
Boys,55.79,2,Nick Boyd,Colorado City Colorado,53.43,88.45,61.23,122.47,272.16,Single-ply,SBD,M
Boys,55.79,DQ,Dayton Deanda,New Home,55.02,63.5,,,,Single-ply,SBD,M
Boys,55.79,DQ,Joseph Connell,Colorado City Colorado,55.79,90.72,,,,Single-ply,SBD,M
Boys,59.87,1,Joshua Lopez,Big Spring,59.87,149.69,86.18,181.44,417.3,Single-ply,SBD,M
Boys,59.87,2,Jonathen Padilla,Stanton,59.87,170.1,90.72,142.88,403.7,Single-ply,SBD,M
Boys,59.87,3,Junie Gonzales,Midland Greenwood,59.6,154.22,74.84,158.76,387.82,Single-ply,SBD,M
Boys,59.87,4,Chris Almaguer,Stanton,59.87,138.35,90.72,142.88,371.95,Single-ply,SBD,M
Boys,59.87,5,Jeremiah Collins,Big Spring,59.78,140.61,68.04,145.15,353.8,Single-ply,SBD,M
Boys,59.87,6,Paul McMillian,Midland Classical Academy,56.7,104.33,58.97,158.76,322.05,Single-ply,SBD,M
Boys,59.87,7,Kenny Richardson,Big Spring,59.42,113.4,74.84,120.2,308.44,Single-ply,SBD,M
Boys,59.87,8,Mason Hudgins,Coahoma,57.38,113.4,70.31,115.67,299.37,Single-ply,SBD,M
Boys,59.87,9,Luke Wilson #4,Roscoe Collegiate,57.88,102.06,56.7,120.2,278.96,Single-ply,SBD,M
Boys,59.87,10,Reece Kiser,Roscoe Collegiate,57.06,102.06,52.16,113.4,267.62,Single-ply,SBD,M
Boys,59.87,11,Jaymes Cazares,Stanton,56.7,102.06,52.16,86.18,240.4,Single-ply,SBD,M
Boys,67.13,1,Patrick Hernandez,Midland Greenwood,66.68,190.51,111.13,195.04,496.68,Single-ply,SBD,M
Boys,67.13,2,Jorge Martinez,Snyder,66.13,181.44,97.52,199.58,478.54,Single-ply,SBD,M
Boys,67.13,3,Ramiro Aguilar,Hawley,67.13,149.69,90.72,163.29,403.7,Single-ply,SBD,M
Boys,67.13,4,Josh Ruiz,Coahoma,65.09,138.35,95.25,165.56,399.16,Single-ply,SBD,M
Boys,67.13,5,Ryan Austin,Midland Greenwood,67.13,147.42,90.72,151.95,390.09,Single-ply,SBD,M
Boys,67.13,6,Andrew DeLeon,Roscoe Collegiate,62.87,151.95,83.91,151.95,387.82,Single-ply,SBD,M
Boys,67.13,7,Cade Clary,Midland Classical Academy,67.13,117.93,61.23,158.76,337.93,Single-ply,SBD,M
Boys,67.13,8,Daniel Estrada,New Home,62.96,131.54,56.7,136.08,324.32,Single-ply,SBD,M
Boys,67.13,9,Chris Ortiz,Colorado City Colorado,60.69,124.74,63.5,133.81,322.05,Single-ply,SBD,M
Boys,67.13,10,Brady Austin,Midland Greenwood,64.86,120.2,74.84,127.01,322.05,Single-ply,SBD,M
Boys,67.13,11,Drake Wyatt,Ropesville Ropes,66.68,106.59,65.77,142.88,315.25,Single-ply,SBD,M
Boys,67.13,12,Sonny Ledesma,Big Spring,62.14,99.79,40.82,102.06,242.67,Single-ply,SBD,M
Boys,67.13,13,Kaden Molina,Coahoma,65,83.91,65.77,61.23,210.92,Single-ply,SBD,M
Boys,67.13,DQ,Damian Rains,Coahoma,64.95,111.13,68.04,,,Single-ply,SBD,M
Boys,74.84,1,David Hunt,Stanton,74.3,158.76,95.25,151.95,405.97,Single-ply,SBD,M
Boys,74.84,2,Braxton Chandler,Coahoma,73.03,147.42,83.91,158.76,390.09,Single-ply,SBD,M
Boys,74.84,3,Patrick Gutierrez,Coahoma,71.89,136.08,79.38,147.42,362.87,Single-ply,SBD,M
Boys,74.84,4,Austin Keys,New Home,70.58,133.81,74.84,136.08,344.73,Single-ply,SBD,M
Boys,74.84,5,Brenn Edwards,Ropesville Ropes,73.48,124.74,63.5,151.95,340.19,Single-ply,SBD,M
Boys,74.84,6,Grayson Layh,Midland Classical Academy,68.49,108.86,70.31,142.88,322.05,Single-ply,SBD,M
Boys,74.84,7,Nicholas Harrell,Colorado City Colorado,68.76,122.47,61.23,136.08,319.78,Single-ply,SBD,M
Boys,74.84,8,Ky Collins,Ropesville Ropes,71.21,97.52,47.63,108.86,254.01,Single-ply,SBD,M
Boys,82.1,1,Ethan Cortez,Big Spring,78.47,192.78,115.67,195.04,503.49,Single-ply,SBD,M
Boys,82.1,2,Tim Avila,Stanton,76.38,181.44,108.86,161.03,451.32,Single-ply,SBD,M
Boys,82.1,3,Ethan Quaid,Stanton,82.1,158.76,104.33,174.63,437.72,Single-ply,SBD,M
Boys,82.1,4,Jake Connell,Colorado City Colorado,77.47,147.42,97.52,165.56,410.5,Single-ply,SBD,M
Boys,82.1,5,Isaiah Johnson,Big Spring,76.66,147.42,90.72,154.22,392.36,Single-ply,SBD,M
Boys,82.1,6,Kevin Rodriguez,Big Spring,78.02,122.47,74.84,115.67,312.98,Single-ply,SBD,M
Boys,82.1,7,David Diaz,Roscoe Collegiate,79.11,111.13,61.23,127.01,299.37,Single-ply,SBD,M
Boys,89.81,1,Jj Burns,Snyder,83.01,254.01,120.2,249.48,623.69,Single-ply,SBD,M
Boys,89.81,2,Keegan Dobbs,Coahoma,87.68,229.06,124.74,210.92,564.72,Single-ply,SBD,M
Boys,89.81,3,John Flores,Snyder,89.81,226.8,133.81,181.44,542.04,Single-ply,SBD,M
Boys,89.81,4,Bryson Duncan,Snyder,88,208.65,124.74,190.51,523.9,Single-ply,SBD,M
Boys,89.81,5,Colton Marshall,Hawley,88.9,172.37,127.01,204.12,503.49,Single-ply,SBD,M
Boys,89.81,6,Nathan Mojica,New Home,87.09,165.56,74.84,158.76,399.16,Single-ply,SBD,M
Boys,89.81,7,Brett Gauger,New Home,87.54,145.15,90.72,151.95,387.82,Single-ply,SBD,M
Boys,89.81,8,Tony Hatfield,Stanton,86.73,156.49,92.99,136.08,385.55,Single-ply,SBD,M
Boys,89.81,9,Caden Marrett,Ropesville Ropes,88.9,124.74,70.31,140.61,335.66,Single-ply,SBD,M
Boys,89.81,10,Brett Blassingame,Colorado City Colorado,89.27,102.06,65.77,127.01,294.84,Single-ply,SBD,M
Boys,89.81,DQ,Ethan Coleman,Midland Greenwood,88,238.14,,,,Single-ply,SBD,M
Boys,99.79,1,Tanner Schnoor,Hawley,97.98,274.42,147.42,258.55,680.39,Single-ply,SBD,M
Boys,99.79,2,Reyes Silva,Snyder,97.61,254.01,133.81,235.87,623.69,Single-ply,SBD,M
Boys,99.79,3,Colton Strickland,Hawley,92.53,190.51,115.67,219.99,526.17,Single-ply,SBD,M
Boys,99.79,4,Isaac Murillo,Coahoma,91.63,192.78,115.67,190.51,498.95,Single-ply,SBD,M
Boys,99.79,5,Aleyas Bland,Big Spring,99.79,185.97,122.47,176.9,485.34,Single-ply,SBD,M
Boys,99.79,6,Karson Martin,Colorado City Colorado,90.72,142.88,52.16,147.42,342.46,Single-ply,SBD,M
Boys,109.77,1,Bobby Zambrano,Coahoma,108.32,242.67,170.1,210.92,623.69,Single-ply,SBD,M
Boys,109.77,2,Christian Bell,Midland Greenwood,103.24,233.6,142.88,226.8,603.28,Single-ply,SBD,M
Boys,109.77,3,Connor McDonald,Midland Greenwood,103.24,242.67,140.61,208.65,591.94,Single-ply,SBD,M
Boys,109.77,4,Ricky Soto,Hawley,109.32,226.8,142.88,206.38,576.06,Single-ply,SBD,M
Boys,109.77,5,Ashton Smith #2,Stanton,102.06,217.72,136.08,204.12,557.92,Single-ply,SBD,M
Boys,109.77,6,Nathaniel Whitmore,Forsan,105.69,215.46,117.93,210.92,544.31,Single-ply,SBD,M
Boys,109.77,7,Grayson Glidewell,Coahoma,105.91,176.9,113.4,172.37,462.66,Single-ply,SBD,M
Boys,109.77,8,Cayman Smith,New Home,101.6,165.56,92.99,167.83,426.38,Single-ply,SBD,M
Boys,109.77,9,Garrett Bowers,Roscoe Collegiate,104.33,156.49,79.38,185.97,421.84,Single-ply,SBD,M
Boys,109.77,10,Cameron Garza,Colorado City Colorado,106.14,151.95,90.72,154.22,396.89,Single-ply,SBD,M
Boys,109.77,11,Noah Harrell,Colorado City Colorado,103.33,142.88,81.65,145.15,369.68,Single-ply,SBD,M
Boys,109.77,12,Adam Hernandez,Colorado City Colorado,102.06,113.4,56.7,131.54,301.64,Single-ply,SBD,M
Boys,124.74,1,Kolter Willeford,Hawley,123.83,294.84,174.63,272.16,741.62,Single-ply,SBD,M
Boys,124.74,2,Bo Thompson,Hawley,119.29,249.48,208.65,244.94,703.07,Single-ply,SBD,M
Boys,124.74,3,Dakota Nichols,Hawley,122.92,238.14,183.7,204.12,625.96,Single-ply,SBD,M
Boys,124.74,4,Michael Huff,Colorado City Colorado,110.22,208.65,138.35,195.04,542.04,Single-ply,SBD,M
Boys,124.74,5,Andrew Roberts #4,Big Spring,112.04,199.58,142.88,185.97,528.44,Single-ply,SBD,M
Boys,124.74,6,Aries Gilbert,Forsan,114.76,199.58,117.93,192.78,510.29,Single-ply,SBD,M
Boys,124.74,7,Justin Marsh,Coahoma,120.29,181.44,104.33,204.12,489.88,Single-ply,SBD,M
Boys,124.74,8,Jake Patterson,Forsan,122.92,181.44,102.06,201.85,485.34,Single-ply,SBD,M
Boys,124.74,9,Daniel Roberts,Big Spring,122.02,181.44,129.27,170.1,480.81,Single-ply,SBD,M
Boys,124.74,10,Cameron Allen,Forsan,112.04,188.24,90.72,188.24,467.2,Single-ply,SBD,M
Boys,124.74,11,Xavier Lopez,Roscoe Collegiate,110.68,120.2,65.77,124.74,310.71,Single-ply,SBD,M
Boys,124.74+,1,Hunter Bolton,Ropesville Ropes,127.46,240.4,138.35,229.06,607.81,Single-ply,SBD,M
Boys,124.74+,2,Zachary Roberts,Big Spring,178.26,231.33,127.01,204.12,562.45,Single-ply,SBD,M
Boys,124.74+,3,Kody Ramsey,Hawley,151.5,215.46,138.35,158.76,512.56,Single-ply,SBD,M
Boys,124.74+,4,Alejandro Gonzales,Coahoma,169.33,61.23,158.76,61.23,281.23,Single-ply,SBD,M
