Division,WeightClassKg,Place,Name,Team,BodyweightKg,Best3SquatKg,Best3BenchKg,Best3DeadliftKg,TotalKg,Equipment,Event,Sex
Boys,55.79,1,David Vega,Freeport Brazosport,51.94,165.56,92.99,174.63,433.18,Single-ply,SBD,M
Boys,51.71,2,Joseph Dodds,Dickinson,51.62,165.56,90.72,165.56,421.84,Single-ply,SBD,M
Boys,51.71,3,Masih Zaman,Katy Mayde Creek,50.44,149.69,86.18,149.69,385.55,Single-ply,SBD,M
Boys,51.71,4,Kevin Angus,Port Neches-Groves,50.85,140.61,79.38,145.15,365.14,Single-ply,SBD,M
Boys,51.71,5,Anthony Grimes,Katy Mayde Creek,50.08,136.08,72.57,147.42,356.07,Single-ply,SBD,M
Boys,51.71,6,Jeremy Charles,Willis,51.71,127.01,81.65,142.88,351.53,Single-ply,SBD,M
Boys,51.71,7,Kenny Nguyen,Dickinson,51.62,129.27,90.72,129.27,349.27,Single-ply,SBD,M
Boys,51.71,8,Adel Jeboki,Port Neches-Groves,51.12,120.2,65.77,151.95,337.93,Single-ply,SBD,M
Boys,55.79,9,Jorgeluis Garcia,Alvin,51.85,122.47,70.31,142.88,335.66,Single-ply,SBD,M
Boys,55.79,10,Jamahl Johnson,Houston Cypress Woods,51.85,120.2,72.57,142.88,335.66,Single-ply,SBD,M
Boys,51.71,11,Fidencio Cruz,Dickinson,51.3,117.93,68.04,136.08,322.05,Single-ply,SBD,M
Boys,59.87,1,Chris Smith #21,Katy Mayde Creek,56.02,226.8,124.74,272.16,623.69,Single-ply,SBD,M
Boys,59.87,2,Andrew Brooks,Houston Madison,55.93,199.58,102.06,181.44,483.08,Single-ply,SBD,M
Boys,59.87,3,Alex Sharp,Dickinson,56.02,183.7,113.4,176.9,474,Single-ply,SBD,M
Boys,55.79,4,Josh Hill #1,Montgomery,55.57,176.9,95.25,174.63,446.79,Single-ply,SBD,M
Boys,59.87,5,Dalton Webb,Conroe Oak Ridge,55.97,158.76,92.99,179.17,430.91,Single-ply,SBD,M
Boys,55.79,6,Angel Garcia #9,Katy Mayde Creek,53.71,158.76,83.91,174.63,417.3,Single-ply,SBD,M
Boys,55.79,7,Sergio Vences,La Porte,54.93,151.95,83.91,163.29,399.16,Single-ply,SBD,M
Boys,55.79,8,Merbin Valladares,Katy Mayde Creek,55.61,142.88,86.18,165.56,394.63,Single-ply,SBD,M
Boys,55.79,9,Ryan Sweat,Conroe The Woodlands,55.66,151.95,81.65,161.03,394.63,Single-ply,SBD,M
Boys,55.79,DQ,Matt Lee,Conroe The Woodlands,55.79,,,,,Single-ply,SBD,M
Boys,55.79,DQ,Izzy Figueroa,New Caney,55.79,,,,,Single-ply,SBD,M
Boys,59.87,1,Rodney Bigham,Channelview,59.42,185.97,129.27,199.58,514.83,Single-ply,SBD,M
Boys,59.87,2,Jacorey Aldridge,La Marque,59.19,192.78,108.86,197.31,498.95,Single-ply,SBD,M
Boys,59.87,3,Max Baronaske,Tomball,58.24,167.83,99.79,174.63,442.25,Single-ply,SBD,M
Boys,59.87,4,Juan Nunez,Katy Mayde Creek,59.65,158.76,90.72,179.17,428.64,Single-ply,SBD,M
Boys,59.87,5,Cody Vitterito,Alvin,58.69,149.69,104.33,172.37,426.38,Single-ply,SBD,M
Boys,59.87,6,Austin Alexander,Conroe Caney Creek,58.79,181.44,88.45,154.22,424.11,Single-ply,SBD,M
Boys,59.87,7,Eric Garza,Magnolia West,59.19,165.56,92.99,158.76,417.3,Single-ply,SBD,M
Boys,59.87,8,Troy Soileau,Lumberton,59.6,156.49,90.72,167.83,415.04,Single-ply,SBD,M
Boys,59.87,9,Luis McDaniel,La Porte,58.56,161.03,99.79,142.88,403.7,Single-ply,SBD,M
Boys,59.87,10,Colin Herzog,Santa Fe,59.28,149.69,86.18,158.76,394.63,Single-ply,SBD,M
Boys,59.87,11,Chris Gargile,Pasadena Memorial,57.24,136.08,63.5,165.56,365.14,Single-ply,SBD,M
Boys,67.13,1,Danzel Granderson,Channelview,66.13,190.51,102.06,238.14,530.7,Single-ply,SBD,M
Boys,74.84,2,Torey Miller,Tomball,67.36,199.58,113.4,217.72,530.7,Single-ply,SBD,M
Boys,67.13,3,Dustin Corkran,Magnolia West,62.82,192.78,115.67,215.46,523.9,Single-ply,SBD,M
Boys,67.13,4,Nick Dockens,Orange Little Cypress-Mauriceville,65.32,199.58,111.13,199.58,510.29,Single-ply,SBD,M
Boys,67.13,5,Jared Wetuski,Montgomery,64.09,192.78,115.67,197.31,505.76,Single-ply,SBD,M
Boys,67.13,6,Jesse Trevino,Houston Chavez,66.04,197.31,106.59,199.58,503.49,Single-ply,SBD,M
Boys,67.13,7,Kevin Green,Katy Mayde Creek,67.09,197.31,111.13,192.78,501.22,Single-ply,SBD,M
Boys,67.13,8,Ronald Winston,Katy Mayde Creek,65.36,192.78,102.06,204.12,498.95,Single-ply,SBD,M
Boys,67.13,9,Shawn Foster,Dickinson,67.04,192.78,108.86,190.51,492.15,Single-ply,SBD,M
Boys,67.13,10,Connor Jung,Conroe,66.5,188.24,102.06,195.04,485.34,Single-ply,SBD,M
Boys,74.84,11,Robert Skellion,Conroe Caney Creek,67.36,174.63,113.4,172.37,460.4,Single-ply,SBD,M
Boys,67.13,12,Kevin Reid,Houston Bellaire,64,145.15,115.67,167.83,428.64,Single-ply,SBD,M
Boys,67.13,DQ,Terrell Raville,Beaumont Ozen,67.13,,,,,Single-ply,SBD,M
Boys,74.84,1,Robert Johnson,Nederland,74.57,260.82,142.88,247.21,650.91,Single-ply,SBD,M
Boys,74.84,2,Daniel Dominguez,El Campo,74.3,263.08,161.03,217.72,641.83,Single-ply,SBD,M
Boys,74.84,3,Justin Hicks,Channelview,72.98,210.92,140.61,249.48,601.01,Single-ply,SBD,M
Boys,74.84,4,Luke Chimes,Dickinson,74.71,217.72,138.35,226.8,582.87,Single-ply,SBD,M
Boys,74.84,5,Justin Eberly,Conroe Caney Creek,74.34,217.72,102.06,224.53,544.31,Single-ply,SBD,M
Boys,74.84,6,Jeremy McNeal,La Porte,70.26,195.04,136.08,204.12,535.24,Single-ply,SBD,M
Boys,74.84,7,Dylan Harvey,Beaumont West Brook,72.76,197.31,120.2,201.85,519.36,Single-ply,SBD,M
Boys,74.84,8,Mike Franke,Conroe Woodlands College Park,73.21,213.19,115.67,185.97,514.83,Single-ply,SBD,M
Boys,74.84,9,Garrett Reagan,Dickinson,74.39,199.58,120.2,195.04,514.83,Single-ply,SBD,M
Boys,74.84,10,Kody Powell,Vidor,71.76,199.58,113.4,199.58,512.56,Single-ply,SBD,M
Boys,74.84,DQ,Nathan Taylor,Montgomery,72.8,183.7,,,,Single-ply,SBD,M
Boys,74.84,DQ,Christian Andrews,Beaumont Ozen,74.84,,,,,Single-ply,SBD,M
Boys,82.1,1,Zach Hohman,Conroe The Woodlands,76.84,294.84,174.63,233.6,703.07,Single-ply,SBD,M
Boys,82.1,2,Jordan Glenn,Houston Bellaire,81.19,244.94,165.56,254.01,664.51,Single-ply,SBD,M
Boys,82.1,3,Tim Ward,Katy Mayde Creek,80.6,260.82,124.74,244.94,630.49,Single-ply,SBD,M
Boys,82.1,4,Josh Wilson,Beaumont West Brook,79.47,272.16,124.74,226.8,623.69,Single-ply,SBD,M
Boys,82.1,5,Kevin Orellana,Katy Mayde Creek,80.6,233.6,136.08,249.48,619.15,Single-ply,SBD,M
Boys,82.1,6,Bryce Siecko,Tomball,80.06,247.21,147.42,217.72,612.35,Single-ply,SBD,M
Boys,82.1,7,Cody Platt,Santa Fe,81.15,242.67,142.88,226.8,612.35,Single-ply,SBD,M
Boys,82.1,8,Nick Sweetland,Conroe The Woodlands,81.42,226.8,174.63,210.92,612.35,Single-ply,SBD,M
Boys,82.1,9,Ryan Asher,Lumberton,81.15,208.65,149.69,219.99,578.33,Single-ply,SBD,M
Boys,82.1,10,Colton Carter,Nederland,80.29,226.8,122.47,215.46,564.72,Single-ply,SBD,M
Boys,82.1,DQ,Daniel Wilkerson,Santa Fe,79.11,,,,,Single-ply,SBD,M
Boys,99.79,1,Troi Johnson,Clute Brazoswood,90.04,263.08,151.95,244.94,659.98,Single-ply,SBD,M
Boys,89.81,2,Kristian Blaylock,Clute Brazoswood,85,263.08,147.42,235.87,646.37,Single-ply,SBD,M
Boys,89.81,3,Jonathon Fontenot,Orange Little Cypress-Mauriceville,87.23,240.4,154.22,242.67,637.3,Single-ply,SBD,M
Boys,89.81,4,Clint Ramirez,New Caney,85.77,240.4,163.29,231.33,635.03,Single-ply,SBD,M
Boys,89.81,5,Michael McDonald,Pasadena Dobie,87.72,254.01,138.35,235.87,628.23,Single-ply,SBD,M
Boys,89.81,6,Chris Smith #22,Conroe Woodlands College Park,87.32,249.48,140.61,233.6,623.69,Single-ply,SBD,M
Boys,89.81,7,Ryan Runnels,Vidor,88.68,242.67,136.08,226.8,605.55,Single-ply,SBD,M
Boys,89.81,8,Tony Pullings,Katy Mayde Creek,86.86,249.48,149.69,204.12,603.28,Single-ply,SBD,M
Boys,89.81,9,Khiry Gray,Livingston,89.49,249.48,151.95,188.24,589.67,Single-ply,SBD,M
Boys,89.81,10,Dustin Hicks,Channelview,84.19,226.8,136.08,215.46,578.33,Single-ply,SBD,M
Boys,89.81,DQ,Byron Wells,Dickinson,85.14,,,,,Single-ply,SBD,M
Boys,99.79,1,Scotty Bailey,Clute Brazoswood,97.7,294.84,190.51,244.94,730.28,Single-ply,SBD,M
Boys,99.79,2,Dequane Bennett,Beaumont West Brook,96.21,303.91,136.08,265.35,705.34,Single-ply,SBD,M
Boys,99.79,3,Ricky Francis,Beaumont Ozen,96.57,242.67,145.15,317.51,705.34,Single-ply,SBD,M
Boys,109.77,4,Matthew Bass,Alvin,99.93,256.28,161.03,283.5,700.8,Single-ply,SBD,M
Boys,99.79,5,Jason Granados,Magnolia West,95.44,267.62,158.76,233.6,659.98,Single-ply,SBD,M
Boys,99.79,6,Rodney Hall,Angleton,97.84,274.42,147.42,235.87,657.71,Single-ply,SBD,M
Boys,99.79,7,Josh Gutierrez,Magnolia West,97.98,269.89,154.22,233.6,657.71,Single-ply,SBD,M
Boys,99.79,8,Shane Privette,Tomball,97.75,233.6,154.22,233.6,621.42,Single-ply,SBD,M
Boys,99.79,DQ,Justin Rice,Pasadena Dobie,99.65,249.48,,,,Single-ply,SBD,M
Boys,99.79,DQ,Dylan Thompson,Houston Cypress Woods,95.57,233.6,145.15,,,Single-ply,SBD,M
Boys,109.77,1,Aaron Ripkowski,Dayton,108.5,278.96,204.12,272.16,755.23,Single-ply,SBD,M
Boys,109.77,2,Stephon Williams,Houston Madison,100.65,272.16,165.56,249.48,687.19,Single-ply,SBD,M
Boys,109.77,3,Richard Goodson,Texas City,108.82,254.01,147.42,278.96,680.39,Single-ply,SBD,M
Boys,109.77,4,Jose Torres #10,Freeport Brazosport,109.04,263.08,158.76,258.55,680.39,Single-ply,SBD,M
Boys,109.77,5,Andrew Bletsch,Santa Fe,109.45,249.48,158.76,272.16,680.39,Single-ply,SBD,M
Boys,109.77,6,Blake Wiley,Tomball,101.33,240.4,147.42,267.62,655.44,Single-ply,SBD,M
Boys,109.77,7,Matt White,Alvin,105.91,240.4,172.37,240.4,653.17,Single-ply,SBD,M
Boys,109.77,8,Charles Tisby,Pasadena Dobie,108.95,242.67,147.42,258.55,648.64,Single-ply,SBD,M
Boys,109.77,9,Bryan Kimmy,Dayton,109.54,276.69,151.95,217.72,646.37,Single-ply,SBD,M
Boys,109.77,10,Josue Toledo,Channelview,108.5,238.14,142.88,256.28,637.3,Single-ply,SBD,M
Boys,109.77,11,Ashante Joseph,Pasadena Dobie,102.56,254.01,131.54,249.48,635.03,Single-ply,SBD,M
Boys,109.77,12,Brett Urbanowski,Katy Mayde Creek,105.69,204.12,140.61,249.48,594.21,Single-ply,SBD,M
Boys,124.74,1,Frank Green,Dickinson,121.93,331.12,206.38,249.48,786.98,Single-ply,SBD,M
Boys,124.74,2,Ray Gentry,Santa Fe,123.92,297.1,188.24,249.48,734.82,Single-ply,SBD,M
Boys,124.74,3,Nick Alvarez,Montgomery,117.66,272.16,181.44,238.14,691.73,Single-ply,SBD,M
Boys,124.74,4,Kenny Coleman,Houston Cypress Ridge,112.13,272.16,154.22,256.28,682.66,Single-ply,SBD,M
Boys,124.74,5,Darrian Wright,Dayton,122.83,272.16,147.42,240.4,659.98,Single-ply,SBD,M
Boys,124.74,6,Glen Salisbury,Conroe Caney Creek,114.08,258.55,172.37,219.99,650.91,Single-ply,SBD,M
Boys,124.74,7,Jared Baker,Houston Cypress Woods,112.58,260.82,147.42,238.14,646.37,Single-ply,SBD,M
Boys,124.74,DQ,Matt Simonette,Houston Bellaire,124.38,260.82,165.56,,,Single-ply,SBD,M
Boys,124.74,DQ,Julius Davilla,Pasadena Memorial,117.44,229.06,,,,Single-ply,SBD,M
Boys,124.74,DQ,Taylor Thompson #1,Port Neches-Groves,114.44,294.84,176.9,,,Single-ply,SBD,M
Boys,124.74+,1,Rafael Gallo,Katy Mayde Creek,126.55,328.85,170.1,278.96,777.91,Single-ply,SBD,M
Boys,124.74+,2,Revis Davis,La Porte,141.61,249.48,192.78,260.82,703.07,Single-ply,SBD,M
Boys,124.74+,3,Anthony Madrigal,Freeport Brazosport,135.85,272.16,167.83,254.01,694,Single-ply,SBD,M
Boys,124.74+,4,Theo Reed,Montgomery,144.11,294.84,149.69,235.87,680.39,Single-ply,SBD,M
Boys,124.74+,5,Kenneth Sifuentes,El Campo,131.68,272.16,158.76,222.26,653.17,Single-ply,SBD,M
Boys,124.74+,6,Marcus Reed,Montgomery,164.56,283.5,142.88,226.8,653.17,Single-ply,SBD,M
Boys,124.74+,7,Jason Lafferty,Waller,129.77,272.16,127.01,249.48,648.64,Single-ply,SBD,M
Boys,124.74+,8,James Graham,Magnolia West,152.95,294.84,140.61,213.19,648.64,Single-ply,SBD,M
Boys,124.74+,9,Kenneth White,Beaumont Ozen,134.13,258.55,158.76,215.46,632.76,Single-ply,SBD,M
Boys,124.74+,10,Charles Phillips,Houston Madison,131.63,249.48,174.63,181.44,605.55,Single-ply,SBD,M
Boys,124.74+,11,Felix Aguirre,Houston Sam Houston,146.51,249.48,136.08,183.7,569.26,Single-ply,SBD,M
Boys,124.74+,DQ,Tc Jones,Angleton,143.74,294.84,,,,Single-ply,SBD,M
