Division,WeightClassKg,Place,Name,Team,BodyweightKg,Best3SquatKg,Best3BenchKg,Best3DeadliftKg,TotalKg,Equipment,Event,Sex
Boys,51.71,1,Everardo Garcia,Roma,50.62,138.35,81.65,147.42,367.41,Single-ply,SBD,M
Boys,51.71,2,Damian Gonzalez,Roma,51.71,127.01,70.31,129.27,326.59,Single-ply,SBD,M
Boys,51.71,3,Rolando Florez,Roma,51.71,129.27,65.77,131.54,326.59,Single-ply,SBD,M
Boys,51.71,4,Tristan Villarreal,Donna North,51.07,111.13,56.7,120.2,288.03,Single-ply,SBD,M
Boys,51.71,5,Juan Villarreal #5,Edinburg North,51.71,81.65,74.84,108.86,265.35,Single-ply,SBD,M
Boys,51.71,6,Jonathan Trevino,Edinburg,48.81,70.31,40.82,83.91,195.04,Single-ply,SBD,M
Boys,51.71,DQ,Jar Ramirez,PSJA North,50.8,,,,,Single-ply,SBD,M
Boys,55.79,1,Joshua Morin,PSJA North,55.79,183.7,124.74,174.63,483.08,Single-ply,SBD,M
Boys,55.79,2,Edgar Martinez #3,Edinburg Vela,55.16,142.88,92.99,163.29,399.16,Single-ply,SBD,M
Boys,55.79,3,Fred Mares,Edinburg,55.7,92.99,72.57,127.01,292.57,Single-ply,SBD,M
Boys,55.79,DQ,Israel Ambriz,Edinburg North,52.62,90.72,,,,Single-ply,SBD,M
Boys,59.87,1,Tony Sauceda,Edinburg Economedes,59.78,195.04,136.08,199.58,530.7,Single-ply,SBD,M
Boys,59.87,2,Justin Berner,Edinburg North,58.51,172.37,117.93,163.29,453.59,Single-ply,SBD,M
Boys,59.87,3,Jackson Littles,PSJA North,59.6,170.1,86.18,151.95,408.23,Single-ply,SBD,M
Boys,59.87,4,Salokin Yanez,Edinburg Vela,58.24,142.88,92.99,154.22,390.09,Single-ply,SBD,M
Boys,59.87,5,Jose Soto,Edinburg Economedes,58.69,147.42,92.99,147.42,387.82,Single-ply,SBD,M
Boys,59.87,6,Albert Gonzalez,Pharr Valley View,59.51,147.42,77.11,158.76,383.29,Single-ply,SBD,M
Boys,59.87,7,Aksel Cerda,Pharr Valley View,59.87,133.81,86.18,163.29,383.29,Single-ply,SBD,M
Boys,59.87,DQ,AJ Trevino,Edinburg,57.06,158.76,,,,Single-ply,SBD,M
Boys,59.87,DQ,Hugo Gomez,Edinburg North,59.33,,,,,Single-ply,SBD,M
Boys,67.13,1,Frank Estrada,PSJA Memorial,66.95,215.46,113.4,213.19,542.04,Single-ply,SBD,M
Boys,67.13,2,Joel Casas,PSJA,62.78,170.1,108.86,170.1,449.06,Single-ply,SBD,M
Boys,67.13,3,Jose Moreno,Roma,66.04,176.9,92.99,172.37,442.25,Single-ply,SBD,M
Boys,67.13,4,Carlos Coroando,Edinburg North,67.13,154.22,113.4,167.83,435.45,Single-ply,SBD,M
Boys,67.13,5,Jacob Reyes,Edinburg Vela,63.32,165.56,111.13,156.49,433.18,Single-ply,SBD,M
Boys,67.13,6,Julio Elizondo,Edinburg,63.96,163.29,92.99,176.9,433.18,Single-ply,SBD,M
Boys,67.13,7,Julian Villanueva,Donna North,63.5,156.49,90.72,165.56,412.77,Single-ply,SBD,M
Boys,67.13,8,Luis Sanchez,Pharr Valley View,64.14,145.15,99.79,154.22,399.16,Single-ply,SBD,M
Boys,67.13,9,Robert Rivera,La Villa,59.96,120.2,61.23,120.2,301.64,Single-ply,SBD,M
Boys,67.13,10,Luis Gonzalez,Roma,60.96,122.47,63.5,104.33,290.3,Single-ply,SBD,M
Boys,67.13,DQ,Jacinto Garza,Edinburg Vela,67.04,142.88,,,,Single-ply,SBD,M
Boys,67.13,DQ,Angel Vazquez,Edinburg Vela,65.05,,,,,Single-ply,SBD,M
Boys,74.84,1,Julio Batista,Edinburg Economedes,70.94,179.17,111.13,201.85,492.15,Single-ply,SBD,M
Boys,74.84,2,Alex Cortez,Edinburg North,74.84,172.37,102.06,201.85,476.27,Single-ply,SBD,M
Boys,74.84,3,Damian Gutierrez,Roma,74.3,161.03,115.67,158.76,435.45,Single-ply,SBD,M
Boys,74.84,4,Oscar Rivera,Edinburg North,69.94,165.56,102.06,163.29,430.91,Single-ply,SBD,M
Boys,74.84,5,Julian Trevino,Edinburg Vela,72.57,156.49,113.4,156.49,426.38,Single-ply,SBD,M
Boys,74.84,6,Alex Benavides,Donna North,74.39,163.29,97.52,161.03,421.84,Single-ply,SBD,M
Boys,74.84,7,Juan Jaramillo,Donna North,74.48,163.29,90.72,158.76,412.77,Single-ply,SBD,M
Boys,74.84,8,Jose Solo,Pharr Valley View,73.12,154.22,86.18,154.22,394.63,Single-ply,SBD,M
Boys,74.84,9,Micheal Zamora,Pharr Valley View,73.3,129.27,65.77,156.49,351.53,Single-ply,SBD,M
Boys,74.84,10,David Quintanilla,PSJA Memorial,72.39,108.86,70.31,127.01,306.17,Single-ply,SBD,M
Boys,74.84,DQ,Chris Pascual,Edinburg Economedes,68.4,,,,,Single-ply,SBD,M
Boys,82.1,1,Behiran Calderini,Edinburg North,82.1,235.87,127.01,229.06,591.94,Single-ply,SBD,M
Boys,82.1,2,Alex Zuniga,Edinburg Economedes,80.56,210.92,108.86,181.44,501.22,Single-ply,SBD,M
Boys,82.1,3,James Champion,Edinburg,81.19,185.97,140.61,172.37,498.95,Single-ply,SBD,M
Boys,82.1,4,Eddie Mujica,Edinburg,77.47,174.63,113.4,192.78,480.81,Single-ply,SBD,M
Boys,82.1,5,Alter Arenas,PSJA North,79.83,192.78,108.86,165.56,467.2,Single-ply,SBD,M
Boys,82.1,6,Nicolas Flores,Edinburg North,80.47,174.63,104.33,188.24,467.2,Single-ply,SBD,M
Boys,82.1,7,Juan Contreras,Edinburg Economedes,76.38,165.56,115.67,183.7,464.93,Single-ply,SBD,M
Boys,82.1,8,Daniel Edwards,PSJA North,76.66,188.24,108.86,165.56,462.66,Single-ply,SBD,M
Boys,82.1,9,Armando Sanchez,Donna North,80.56,163.29,86.18,172.37,421.84,Single-ply,SBD,M
Boys,82.1,10,Baltazar Perez,Roma,80.1,142.88,99.79,158.76,401.43,Single-ply,SBD,M
Boys,82.1,11,John Contreras,La Villa,80.1,158.76,97.52,142.88,399.16,Single-ply,SBD,M
Boys,82.1,DQ,Christian Cortina,Donna North,82.1,,,,,Single-ply,SBD,M
Boys,89.81,1,Rene Cantu,Edinburg Vela,88.63,247.21,147.42,217.72,612.35,Single-ply,SBD,M
Boys,89.81,2,Eddie Hinojosa,Edinburg Vela,87.09,226.8,124.74,226.8,578.33,Single-ply,SBD,M
Boys,89.81,3,Chris Maldonado,Edinburg Economedes,89.81,224.53,142.88,206.38,573.79,Single-ply,SBD,M
Boys,89.81,4,Aaron Alvarez,PSJA North,87.54,224.53,129.27,210.92,564.72,Single-ply,SBD,M
Boys,89.81,5,Roger Juarez,PSJA,89.27,219.99,147.42,181.44,548.85,Single-ply,SBD,M
Boys,89.81,6,Juan Sanchez #6,Edinburg North,85.28,181.44,115.67,165.56,462.66,Single-ply,SBD,M
Boys,89.81,7,Kevin Cantu,PSJA North,84.82,179.17,108.86,142.88,430.91,Single-ply,SBD,M
Boys,89.81,8,Kris Camacho,Pharr Valley View,89.36,138.35,117.93,170.1,426.38,Single-ply,SBD,M
Boys,89.81,DQ,John Guzman #2,Edinburg Vela,87.91,183.7,,,,Single-ply,SBD,M
Boys,99.79,1,Juan Flores,PSJA,96.34,256.28,158.76,219.99,635.03,Single-ply,SBD,M
Boys,99.79,2,Arturo Pena,Edinburg Vela,96.89,238.14,151.95,222.26,612.35,Single-ply,SBD,M
Boys,99.79,3,Jose Rangel,La Villa,99.52,240.4,131.54,226.8,598.74,Single-ply,SBD,M
Boys,99.79,4,Elias Moreno,PSJA,92.08,222.26,156.49,181.44,560.19,Single-ply,SBD,M
Boys,99.79,5,Frankie Coronado,Edinburg,95.71,192.78,131.54,206.38,530.7,Single-ply,SBD,M
Boys,99.79,6,Fabian Martinez,Donna North,99.06,206.38,99.79,181.44,487.61,Single-ply,SBD,M
Boys,99.79,7,Ricky de Leon,Edinburg Economedes,91.08,179.17,129.27,174.63,483.08,Single-ply,SBD,M
Boys,99.79,8,Juan Casarez,Edinburg North,95.89,156.49,136.08,188.24,480.81,Single-ply,SBD,M
Boys,99.79,9,Pablo Rodriguez,Edinburg North,98.79,170.1,127.01,181.44,478.54,Single-ply,SBD,M
Boys,99.79,10,Ricardo Saenz,PSJA,94.53,188.24,115.67,167.83,471.74,Single-ply,SBD,M
Boys,99.79,11,Oscar Chavaria,Edinburg North,93.44,142.88,102.06,195.04,439.98,Single-ply,SBD,M
Boys,99.79,12,Jose Gandana,Donna North,91.63,181.44,88.45,167.83,437.72,Single-ply,SBD,M
Boys,99.79,13,Luis Avila,Roma,92.62,188.24,92.99,154.22,435.45,Single-ply,SBD,M
Boys,99.79,14,Rey Luevano,Edinburg North,94.08,142.88,108.86,183.7,435.45,Single-ply,SBD,M
Boys,99.79,15,Juan Mendoza #4,Edinburg,94.26,158.76,115.67,161.03,435.45,Single-ply,SBD,M
Boys,99.79,16,Luis Mireles,PSJA Memorial,91.26,167.83,88.45,161.03,417.3,Single-ply,SBD,M
Boys,109.77,1,Marcos Garza,Edinburg Economedes,104.14,285.76,197.31,267.62,750.7,Single-ply,SBD,M
Boys,109.77,2,Ryan Reyna,PSJA North,101.24,240.4,147.42,219.99,607.81,Single-ply,SBD,M
Boys,109.77,3,Conrad Valledares,PSJA North,105.69,215.46,147.42,226.8,589.67,Single-ply,SBD,M
Boys,109.77,4,Mario Reyna,Edinburg Economedes,103.06,215.46,140.61,188.24,544.31,Single-ply,SBD,M
Boys,109.77,5,JJ Barrientes,PSJA,106.5,206.38,127.01,197.31,530.7,Single-ply,SBD,M
Boys,109.77,6,Ryan Rodriguez,Edinburg,104.6,185.97,131.54,192.78,510.29,Single-ply,SBD,M
Boys,109.77,7,Matthew Alfaro,Edinburg Economedes,100.88,188.24,124.74,188.24,501.22,Single-ply,SBD,M
Boys,109.77,8,Robert Ramos,Roma,103.24,197.31,97.52,190.51,485.34,Single-ply,SBD,M
Boys,109.77,9,Anthony Cardona,Edinburg,101.24,190.51,111.13,181.44,483.08,Single-ply,SBD,M
Boys,109.77,10,Laurencio Lopez,Roma,105.14,183.7,102.06,197.31,483.08,Single-ply,SBD,M
Boys,109.77,11,Diego Mantoya,Roma,109.77,195.04,117.93,165.56,478.54,Single-ply,SBD,M
Boys,109.77,12,Shayne Hernandez,Edinburg,106.32,172.37,115.67,179.17,467.2,Single-ply,SBD,M
Boys,109.77,13,Jacob Lopez,PSJA,107.41,181.44,122.47,161.03,464.93,Single-ply,SBD,M
Boys,109.77,14,Moises Vazaldua,PSJA,101.51,176.9,108.86,170.1,455.86,Single-ply,SBD,M
Boys,109.77,DQ,Michael Anzaldua,Edinburg North,106.59,,,,,Single-ply,SBD,M
Boys,109.77,DQ,Lazaro Patlan,Edinburg,104.69,238.14,133.81,,,Single-ply,SBD,M
Boys,124.74,1,Oscar Juarez,Edinburg,115.48,265.35,179.17,217.72,662.24,Single-ply,SBD,M
Boys,124.74,2,Ernie Cantu,Edinburg Vela,115.94,233.6,136.08,238.14,607.81,Single-ply,SBD,M
Boys,124.74,3,Leeroy Carrizales,PSJA Memorial,124.74,249.48,124.74,215.46,589.67,Single-ply,SBD,M
Boys,124.74,4,Eloy Ramirez,La Villa,117.66,249.48,120.2,183.7,553.38,Single-ply,SBD,M
Boys,124.74,5,Caleb Zerrato,PSJA Memorial,110.86,226.8,115.67,185.97,528.44,Single-ply,SBD,M
Boys,124.74,6,Louie Rodriguez,Edinburg,119.2,204.12,129.27,192.78,526.17,Single-ply,SBD,M
Boys,124.74,7,Luis Trevino,Edinburg,114.49,199.58,117.93,172.37,489.88,Single-ply,SBD,M
Boys,124.74,8,Carlos Garza,Roma,113.31,185.97,124.74,167.83,478.54,Single-ply,SBD,M
Boys,124.74,9,Kevin Lopez,PSJA Memorial,115.48,172.37,108.86,158.76,439.98,Single-ply,SBD,M
Boys,124.74+,1,Nelson Carrillo,Edinburg,127.5,263.08,147.42,217.72,628.23,Single-ply,SBD,M
Boys,124.74+,2,Jose Tovar,PSJA Memorial,132.27,215.46,183.7,190.51,589.67,Single-ply,SBD,M
Boys,124.74+,3,David Chapa,PSJA,139.98,242.67,129.27,201.85,573.79,Single-ply,SBD,M
Boys,124.74+,4,Valentin Lopez,PSJA Memorial,150.5,283.5,129.27,158.76,571.53,Single-ply,SBD,M
Boys,124.74+,5,Josue Vaquera,PSJA Memorial,150.41,215.46,127.01,195.04,537.51,Single-ply,SBD,M
Boys,124.74+,DQ,Joel Iracheta,PSJA North,143.34,201.85,133.81,,,Single-ply,SBD,M
Boys,124.74+,DQ,Albert Jackson,PSJA,134.99,183.7,111.13,,,Single-ply,SBD,M
