Place,Name,Country,Division,Equipment,Event,BirthDate,BirthYear,Sex,BodyweightKg,WeightClassKg,Squat1Kg,Squat2Kg,Squat3Kg,Best3SquatKg,Bench1Kg,Bench2Kg,Bench3Kg,Best3BenchKg,Deadlift1Kg,Deadlift2Kg,Deadlift3Kg,Best3DeadliftKg,TotalKg
3,Tapani Puhakka,Finland,Masters 4,Raw,SBD,,1944,M,81.76,83,65,72.5,75,75,65,70,75,75,120,135,145,145,295
1,John Terragni,Denmark,Masters 4,Raw,SBD,,1947,M,72.78,74,145,152.5,158,158,107.5,112.5,-117.5,112.5,160,170,180,180,450.5
3,Jean-Paul Belmas,France,Masters 4,Raw,SBD,,1949,M,103.46,105,-130,-130,130,130,75,80,85,85,130,150,160,160,375
4,Lorenzo Pérez Mejías,Spain,Masters 4,Raw,SBD,,1949,M,72.78,74,95,-105,105,105,60,65,67.5,67.5,125,135,140,140,312.5
3,Sava Vasiljevski,Serbia,Masters 4,Raw,SBD,,1950,M,91.78,93,120,140,,140,65,-75,-75,65,160,180,190,190,395
2,Christian Delpieu,France,Masters 4,Raw,SBD,,1951,M,98.76,105,-170,-170,170,170,55,70,,70,180,195,,195,435
1,Jean-François Vinot,France,Masters 4,Raw,SBD,,1951,M,80.38,83,150,160,165,165,75,80,82.5,82.5,180,190,202.5,202.5,450
1,Franz Schmidt,Germany,Masters 4,Raw,SBD,,1951,M,64.36,66,95,102.5,107.5,107.5,72.5,77.5,80,80,120,130,135,135,322.5
1,Ralf Bog,Germany,Masters 4,Raw,SBD,,1952,M,128.36,120+,165,-175,-175,165,70,75,80,80,185,195,200,200,445
2,Jean-Yves Marion,France,Masters 4,Raw,SBD,,1952,M,72.66,74,125,130,132.5,132.5,80,82.5,-85,82.5,155,160,-162.5,160,375
1,Reiner Katzula,Germany,Masters 4,Raw,SBD,,1953,M,116.48,120,195,-202.5,215,215,135,137.5,,137.5,190,200,211,211,563.5
1,Jean Bonnefoy,France,Masters 4,Raw,SBD,,1953,M,57.26,59,115,125,135,135,85,90,95,95,155,165,-170,165,395
1,Anders Källberg,Sweden,Masters 4,Raw,SBD,,1954,M,91.16,93,160,175,182.5,182.5,107.5,112.5,117.5,117.5,190,202.5,212.5,212.5,512.5
1,Arnold Leesemann,Germany,Masters 4,Raw,SBD,,1954,M,102.5,105,150,-155,155,155,110,120,125,125,190,200,220,220,500
2,Ilkka Launonen,Finland,Masters 4,Raw,SBD,,1954,M,91.62,93,150,160,-165,160,141,141.5,142.5,142.5,200,-210,-210,200,502.5
5,Vidar Alexander Ringvold,Norway,Masters 3,Raw,SBD,,1955,M,115.12,120,150,170,,170,150,155,-160,155,150,170,175,175,500
DQ,José Aurelio Morado Martínez,Spain,Masters 3,Raw,SBD,,1955,M,81.24,83,160,170,-182.5,170,-110,-110,-110,,,,,,
7,Régis Gautier,France,Masters 3,Raw,SBD,,1956,M,81.76,83,-135,-135,135,135,95,100,-102.5,100,210,-217.5,-217.5,210,445
4,Anton Mihok,Slovakia,Masters 3,Raw,SBD,,1957,M,73.5,74,-160,-160,160,160,120,125,-127.5,125,180,187.5,190,190,475
4,Philippe Rouge,France,Masters 3,Raw,SBD,,1957,M,64.5,66,120,125,130,130,82.5,-87.5,87.5,87.5,150,-160,160,160,377.5
2,Rafael López Cabello,Spain,Masters 3,Raw,SBD,,1958,M,64.28,66,-150,150,-168.5,150,-77.5,80,,80,190,207.5,-225.5,207.5,437.5
9,Patrick Malenfant,France,Masters 3,Raw,SBD,,1958,M,73.34,74,127.5,135,142.5,142.5,87.5,92.5,95,95,145,157.5,162.5,162.5,400
5,Hans Winbo,Sweden,Masters 3,Raw,SBD,,1958,M,79.38,83,160,175,180,180,100,-107.5,-107.5,100,200,210,215,215,495
3,Reino Puska,Sweden,Masters 3,Raw,SBD,,1959,M,78.38,83,180,190,200,200,110,115,117.5,117.5,192.5,202.5,215,215,532.5
2,Ladislav Horny,Slovakia,Masters 3,Raw,SBD,,1959,M,107.46,120,195,205,210,210,142.5,147.5,152.5,152.5,205,215,220,220,582.5
5,Daniel Jouannic,France,Masters 3,Raw,SBD,,1960,M,73.72,74,150,160,-165,160,95,100,-102.5,100,170,180,185,185,445
7,Allen Ottolangui,UK,Masters 3,Raw,SBD,,1960,M,73.64,74,-165,-165,165,165,87.5,-92.5,-92.5,87.5,175,-190,,175,427.5
6,Roland Asmus,Germany,Masters 3,Raw,SBD,,1960,M,72.46,74,-140,150,160,160,92.5,97.5,-100,97.5,160,170,180,180,437.5
5,Oddbjørn Viken,Norway,Masters 3,Raw,SBD,,1961,M,92.26,93,167.5,175,-180,175,110,-115,-115,110,190,200,-205,200,485
3,Ángel Luis Pajuelo Muñoz,Spain,Masters 3,Raw,SBD,,1961,M,90.98,93,190,200,-205,200,130,135,-137.5,135,215,-235,235,235,570
2,Henry Chay,UK,Masters 3,Raw,SBD,,1961,M,58.46,59,135,-142.5,142.5,142.5,67.5,70,72.5,72.5,-170,175,-177.5,175,390
1,Fernando Jimenez Ortega,Spain,Masters 3,Raw,SBD,,1961,M,71.38,74,185,200,-210,200,125,134,-139,134,210,222.5,225,225,559
DQ,Peer Haensicke,Germany,Masters 3,Raw,SBD,,1961,M,91.48,93,200,212.5,-217.5,212.5,-145,-152.5,-152.5,,-190,190,,190,
1,Štefan Koľšovský,Slovakia,Masters 3,Raw,SBD,,1961,M,58.44,59,140,148,-150,148,95,102.5,-105.5,102.5,140,-150,-150,140,390.5
1,Ryszard Wszoła,Poland,Masters 3,Raw,SBD,,1962,M,129.2,120+,255,270,285,285,110,120,-122.5,120,270,290,305,305,710
2,Bob Sadler,UK,Masters 3,Raw,SBD,,1962,M,131.7,120+,202.5,212.5,-225,212.5,70,100,110,110,220,227.5,-232.5,227.5,550
2,Grant Sugarman,UK,Masters 3,Raw,SBD,,1962,M,82.28,83,165,-175,175,175,110,115,117.5,117.5,220,240,245,245,537.5
4,Vladimír Turtev,Czechia,Masters 3,Raw,SBD,,1962,M,103.5,105,190,200,205,205,135,142.5,145,145,225,235,-240,235,585
3,Jiří Psota,Czechia,Masters 3,Raw,SBD,,1962,M,104.16,105,180,200,210,210,150,157.5,160,160,210,230,-247.5,230,600
1,Maurizio Buscarini,Italy,Masters 3,Raw,SBD,,1962,M,104.36,105,217.5,227.5,-232.5,227.5,132.5,137.5,-142.5,137.5,252.5,265,-281,265,630
3,Ismo Hietanen,Finland,Masters 3,Raw,SBD,,1963,M,73.3,74,155,160,165,165,110,115,-117.5,115,185,192.5,195,195,475
3,Juha Kujala,Finland,Masters 3,Raw,SBD,,1963,M,64.48,66,110,117.5,122.5,122.5,92.5,97.5,100,100,152.5,157.5,-160,157.5,380
DQ,Kersten Kammer,Germany,Masters 3,Raw,SBD,,1963,M,103.16,105,170,180,190,190,-135,-140,-140,,205,217.5,222.5,222.5,
4,Jean-Claude Pinat,France,Masters 3,Raw,SBD,,1963,M,115.56,120,190,-205,205,205,100,120,135,135,240,-262.5,-262.5,240,580
5,Zdeněk Liberda,Czechia,Masters 3,Raw,SBD,,1963,M,65.34,66,85,-92.5,92.5,92.5,72.5,77.5,-80,77.5,120,130,135,135,305
1,Ronny Andersen,Norway,Masters 3,Raw,SBD,,1964,M,119.88,120,205,215,217.5,217.5,160,167.5,-170,167.5,240,255,-265,255,640
1,David Gray,UK,Masters 3,Raw,SBD,,1964,M,64.36,66,150,160,168.5,168.5,100,107.5,112.5,112.5,200,-215,225.5,225.5,506.5
1,Robert Rodney,UK,Masters 3,Raw,SBD,,1964,M,90,93,190,205,215,215,127.5,135,140,140,250,272.5,288.5,288.5,643.5
4,Georges Mingot,France,Masters 3,Raw,SBD,,1964,M,81.92,83,177.5,182.5,187.5,187.5,125,130,-132.5,130,185,195,200,200,517.5
3,Voitto Riihimäki,Sweden,Masters 3,Raw,SBD,,1964,M,125.88,120+,165,175,-185,175,95,105,-110,105,205,220,227.5,227.5,507.5
2,Niclas Yngvesson,Sweden,Masters 3,Raw,SBD,,1964,M,73.6,74,160,-170,-170,160,120,127.5,130,130,-220,237.5,-245,237.5,527.5
3,David Charnock,UK,Masters 3,Raw,SBD,,1964,M,113.34,120,200,220,-230,220,127.5,135,-142.5,135,225,-245,-245,225,580
2,Magnus Apell,Sweden,Masters 3,Raw,SBD,,1964,M,91.22,93,185,200,210,210,105,115,120,120,210,225,242.5,242.5,572.5
4,Jens Lund Tvilling Vinther,Denmark,Masters 2,Raw,SBD,,1965,M,117.72,120,210,225,240,240,147.5,152.5,155,155,255,267.5,-270,267.5,662.5
4,Kalju Abner,Estonia,Masters 2,Raw,SBD,,1965,M,91.48,93,-200,200,210,210,162.5,170,-172.5,170,225,240,245,245,625
7,Roar Fjellet,Norway,Masters 2,Raw,SBD,,1966,M,90.04,93,210,220,227.5,227.5,120,127.5,-132.5,127.5,210,-220,-220,210,565
7,Antonio Macía Pajarés,Spain,Masters 2,Raw,SBD,,1966,M,81.42,83,185,200,-207.5,200,102.5,-107.5,-107.5,102.5,220,235,-245,235,537.5
6,Terje Myrvold,Norway,Masters 2,Raw,SBD,,1967,M,65.62,66,120,130,135,135,85,90,95,95,115,145,155,155,385
10,Henrik Smedmark,Sweden,Masters 2,Raw,SBD,,1967,M,110.1,120,195,205,212.5,212.5,135,140,-145,140,235,245,247.5,247.5,600
DQ,Frédéric Spitz,France,Masters 2,Raw,SBD,,1967,M,112.68,120,-220,220,235,235,150,-155,-155,150,-250,-275,-275,,
9,Ove Fosse,Norway,Masters 2,Raw,SBD,,1968,M,102.1,105,190,200,-202.5,200,120,-125,-125,120,210,222.5,-230,222.5,542.5
1,Kader Baali,France,Masters 2,Raw,SBD,,1968,M,73.76,74,205,217.5,226,226,130,135,140,140,232.5,247.5,-261,247.5,613.5
6,George Millar,UK,Masters 2,Raw,SBD,,1968,M,82.32,83,190,205,210,210,110,-115,-115,110,-240,240,-267.5,240,560
5,Bernie McGurk,UK,Masters 2,Raw,SBD,,1968,M,72.68,74,175,182.5,-190,182.5,102.5,107.5,-110,107.5,220,-235,235,235,525
1,Alejandro Rodríguez Acuña,Spain,Masters 2,Raw,SBD,,1968,M,92.58,93,230,240,250,250,160,165,-170,165,230,242.5,257.5,257.5,672.5
11,Nicklas Karlsson,Sweden,Masters 2,Raw,SBD,,1969,M,113.95,120,165,180,190,190,160,170,175,175,180,210,-235,210,575
1,Frode Rui,Norway,Masters 2,Raw,SBD,,1969,M,120.62,120+,255,265,270,270,167.5,170,-172.5,170,292.5,313,320.5,320.5,760.5
2,Wallace Clarke,UK,Masters 2,Raw,SBD,,1969,M,91.66,93,220,227.5,-230,227.5,140,145,-150,145,240,247.5,260,260,632.5
9,Cesar Hernando Serrano,Spain,Masters 2,Raw,SBD,,1969,M,81.58,83,160,170,-180,170,117.5,122.5,127.5,127.5,180,190,200,200,497.5
5,Christopher Lynn,UK,Masters 2,Raw,SBD,,1969,M,103.68,105,235,-247.5,250,250,127.5,-132.5,135,135,262.5,275,285,285,670
4,Domenico Zaino,Italy,Masters 2,Raw,SBD,,1969,M,103.26,105,235,245,252.5,252.5,-150,-150,150,150,275,282.5,-285,282.5,685
12,Panagiotis Koutentis,Cyprus,Masters 2,Raw,SBD,,1969,M,91.54,93,155,160,165,165,127.5,135,-137.5,135,175,180,-182.5,180,480
5,Michael Wegerer,Austria,Masters 2,Raw,SBD,,1970,M,82.68,83,160,180,-185,180,147.5,152.5,155,155,210,227.5,-242.5,227.5,562.5
1,Lawrence Hackley,Sweden,Masters 2,Raw,SBD,,1970,M,103.8,105,255,265,-270,265,140,150,-155,150,285,-305,315,315,730
2,Francesco Ieraci,Italy,Masters 2,Raw,SBD,,1970,M,82.74,83,-200,200,215,215,112.5,117.5,122.5,122.5,250,267.5,-296,267.5,605
3,Nicolás Carrasquel Hernández,Spain,Masters 2,Raw,SBD,,1970,M,102.92,105,215,230,237.5,237.5,165,172.5,175,175,250,265,272.5,272.5,685
5,Dirk Verbruggen,Belgium,Masters 2,Raw,SBD,,1970,M,65.22,66,160,165,170,170,80,87.5,-92.5,87.5,180,190,-200,190,447.5
3,Darren Greville,UK,Masters 2,Raw,SBD,,1970,M,119.42,120,220,240,255,255,160,170,-172.5,170,-220,245,260,260,685
8,Fadi Gantous Zacharia,France,Masters 2,Raw,SBD,,1970,M,107.36,120,-220,220,227.5,227.5,-130,130,-135,130,272.5,-280,-280,272.5,630
1,Andy Liddle,UK,Masters 2,Raw,SBD,,1970,M,58.76,59,110,-117.5,-117.5,110,80,85,-87.5,85,135,-142.5,-142.5,135,330
9,Eduardo Prada Jiménez,Spain,Masters 2,Raw,SBD,,1970,M,114.48,120,215,225,235,235,130,137.5,142.5,142.5,220,240,-260,240,617.5
8,Johny Paelinck,Belgium,Masters 2,Raw,SBD,,1970,M,71.16,74,177.5,187.5,190,190,105,110,-115,110,190,-200,-200,190,490
9,Alfons Raess,Germany,Masters 2,Raw,SBD,,1970,M,91.98,93,170,185,190,190,122.5,130,-132.5,130,220,242.5,-247.5,242.5,562.5
DQ,Timo Heiskanen,Finland,Masters 2,Raw,SBD,,1970,M,73.54,74,-190,-190,-190,,,,,,,,,,
6,Julián Leganés De La Fuente,Spain,Masters 2,Raw,SBD,,1970,M,72.82,74,165,175,185,185,117.5,125,-130,125,190,205,215,215,525
3,François Besnard,France,Masters 2,Raw,SBD,,1971,M,64.52,66,147.5,155,160,160,120,-127.5,127.5,127.5,192.5,-205,205,205,492.5
4,Marko Helynen,Finland,Masters 2,Raw,SBD,,1971,M,82.86,83,200,210,217.5,217.5,130,140,-145,140,230,240,245,245,602.5
10,Michaël Desmet,Belgium,Masters 2,Raw,SBD,,1971,M,101.98,105,180,190,205,205,135,145,-150,145,190,-205,-205,190,540
6,David Cottret,France,Masters 2,Raw,SBD,,1971,M,120.7,120+,75,95,97.5,97.5,167.5,175,-177.5,175,75,95,105,105,377.5
7,Pasi Putkonen,Finland,Masters 2,Raw,SBD,,1971,M,104.38,105,215,-230,230,230,175,180,-182.5,180,230,-255,-255,230,640
3,Vesa Kovalainen,Finland,Masters 2,Raw,SBD,,1971,M,92.86,93,225,-227.5,237.5,237.5,125,-130,-130,125,250,-260,265,265,627.5
1,Greig Murray,UK,Masters 2,Raw,SBD,,1971,M,65.74,66,160,167.5,172.5,172.5,110,115,-117.5,115,220,240,253.5,253.5,541
7,Pablo Rego Merino,Spain,Masters 2,Raw,SBD,,1971,M,73.54,74,160,172.5,182.5,182.5,95,100,102.5,102.5,207.5,222.5,232.5,232.5,517.5
4,Christopher Dolk,Sweden,Masters 2,Raw,SBD,,1972,M,71.5,74,175,182.5,190,190,127.5,132.5,-135,132.5,200,-210,210,210,532.5
8,Kaj Wasenius,Finland,Masters 2,Raw,SBD,,1972,M,104.22,105,170,185,200,200,120,125,130,130,200,220,240,240,570
2,David Menner,Germany,Masters 2,Raw,SBD,,1972,M,64.98,66,165,175,180,180,105,107.5,110,110,200,210,215,215,505
2,Sami Siltala,Finland,Masters 2,Raw,SBD,,1972,M,73.62,74,175,185,190,190,120,125,-130,125,230,240,245,245,560
6,Karel Rada #1,Czechia,Masters 2,Raw,SBD,,1973,M,104.82,105,250,265,-270,265,160,-167.5,-167.5,160,240,-255,,240,665
3,Thomas Konstanty,Germany,Masters 2,Raw,SBD,,1973,M,80.8,83,180,190,195,195,105,112.5,-117.5,112.5,270,290,295,295,602.5
4,Matthias Riesch,Germany,Masters 2,Raw,SBD,,1973,M,65.44,66,160,170,175,175,90,92.5,-95,92.5,190,205,-207.5,205,472.5
5,Stephan Vorup,Denmark,Masters 2,Raw,SBD,,1973,M,118.94,120,215,235,237.5,237.5,157.5,162.5,-167.5,162.5,240,260,-277.5,260,660
10,Andreas Mouzouras,Cyprus,Masters 2,Raw,SBD,,1973,M,91.46,93,212.5,-222.5,227.5,227.5,-112.5,120,-132.5,120,180,192.5,207.5,207.5,555
6,Roberto Durán Estrada,Spain,Masters 2,Raw,SBD,,1973,M,92.16,93,210,225,230,230,130,140,-145,140,230,245,-255,245,615
5,Marcel Benzler,Germany,Masters 2,Raw,SBD,,1974,M,136.68,120+,200,220,230,230,170,177.5,180,180,220,240,-257.5,240,650
10,Marcel Rusnák,Slovakia,Masters 2,Raw,SBD,,1974,M,82.4,83,-150,150,,150,-140,140,-145,140,190,200,-205,200,490
1,Adem Biyikoğlu,Turkey,Masters 2,Raw,SBD,,1974,M,82.66,83,230,243,250.5,250.5,160,167.5,172.5,172.5,270,285,-296,285,708
2,Marc Vandewiele,Belgium,Masters 2,Raw,SBD,,1974,M,103.82,105,250,265,275,275,142.5,150,-152.5,150,282.5,300,305,305,730
8,Jan Fellegi,Slovakia,Masters 2,Raw,SBD,,1974,M,91.6,93,172.5,177.5,182.5,182.5,127.5,135,140,140,220,230,240,240,562.5
8,Bystrik Vidasic,Slovakia,Masters 2,Raw,SBD,,1974,M,82.28,83,190,195,-200,195,120,-125,,120,205,215,-220,215,530
1,Scott Simon #1,UK,Masters 2,Raw,SBD,,1974,M,111.26,120,275,295.5,305.5,305.5,200,207.5,-210,207.5,280,303,-307,303,816
3,David Perrodou,France,Masters 2,Raw,SBD,,1974,M,73.42,74,177.5,185,-190,185,132.5,137.5,140,140,220,227.5,232.5,232.5,557.5
2,Vahur Mägi,Estonia,Masters 2,Raw,SBD,,1974,M,118.2,120,240,255,265,265,155,162.5,-167.5,162.5,270,290,310,310,737.5
14,Thomas Celestin,UK,Masters 1,Raw,SBD,,1975,M,92,93,235,245,250,250,107.5,112.5,-115,112.5,280,-295,295,295,657.5
2,Raúl López Cubelles,Spain,Masters 1,Raw,SBD,,1975,M,119.66,120,240,250,-260,250,190,195,-200,195,270,290,-302.5,290,735
9,Martin Aparicio,Sweden,Masters 1,Raw,SBD,,1975,M,71.78,74,120,127.5,130,130,100,-102.5,-102.5,100,165,170,-172.5,170,400
3,Alessandro Cuoghi,Italy,Masters 1,Raw,SBD,,1975,M,91.12,93,245,257.5,262.5,262.5,155,165,170,170,255,270,-277.5,270,702.5
11,Michele Tegon,UK,Masters 1,Raw,SBD,,1976,M,91.68,93,247.5,255,260,260,140,-145,145,145,250,262.5,-267.5,262.5,667.5
2,Massimiliano Buccioni,Italy,Masters 1,Raw,SBD,,1976,M,82.18,83,247.5,260,-265,260,150,157.5,-160,157.5,262.5,-275,277.5,277.5,695
4,Seth Stohlmann,Norway,Masters 1,Raw,SBD,,1976,M,65.22,66,145,155,-160,155,120,130,-135,130,165,180,-190,180,465
8,Fredrik Correa,Sweden,Masters 1,Raw,SBD,,1977,M,92.28,93,220,232.5,240,240,157.5,165,-170,165,270,-285,-300,270,675
1,Sébastien Gilibert,France,Masters 1,Raw,SBD,,1977,M,58.76,59,105,112.5,120,120,65,70,-75,70,150,160,-165,160,350
2,Jesús Daniel Prieto Freire,Spain,Masters 1,Raw,SBD,,1977,M,156.56,120+,350,365,-380,365,170,175,180,180,290,-300,-300,290,835
2,Christian Klotz,Austria,Masters 1,Raw,SBD,,1977,M,104.34,105,250,265,272.5,272.5,200,207.5,-212.5,207.5,250,270,-282.5,270,750
1,Christian Mameli,Italy,Masters 1,Raw,SBD,,1978,M,65.68,66,177.5,185,-190,185,120,125,-127.5,125,217.5,227.5,-237.5,227.5,537.5
12,René Ullerich,Germany,Masters 1,Raw,SBD,,1978,M,92.38,93,240,-252.5,-252.5,240,157.5,162.5,-167.5,162.5,257.5,265,-272.5,265,667.5
6,Andreas Ehliger,Germany,Masters 1,Raw,SBD,,1978,M,143.6,120+,240,252.5,260,260,190,200,205,205,225,235,240,240,705
12,John Roald Lohne,Norway,Masters 1,Raw,SBD,,1978,M,102.52,105,212.5,222.5,227.5,227.5,125,130,135,135,242.5,-255,-255,242.5,605
8,Rachid Acheache,Belgium,Masters 1,Raw,SBD,,1978,M,103.92,105,-250,250,-265,250,130,140,-145,140,250,265,272.5,272.5,662.5
DQ,Maarten Terryn,Belgium,Masters 1,Raw,SBD,,1978,M,128.2,120+,,,,,,,,,,,,,
6,Ashkan Farhangi Aghasafari,Spain,Masters 1,Raw,SBD,,1978,M,90.46,93,255,265,-272.5,265,145,152.5,155,155,267.5,-277.5,-282.5,267.5,687.5
4,Helge Hansen,Norway,Masters 1,Raw,SBD,,1979,M,92.12,93,247.5,257.5,262.5,262.5,157.5,162.5,165,165,265,-280,-280,265,692.5
10,Rubén Martín Redondo,Spain,Masters 1,Raw,SBD,,1979,M,73,74,190,197.5,200,200,107.5,-112.5,,107.5,75,,,75,382.5
5,Maik Klingert,Germany,Masters 1,Raw,SBD,,1979,M,73.24,74,175,195,202.5,202.5,110,122.5,-130,122.5,215,245,255,255,580
1,Florent Lenglet,France,Masters 1,Raw,SBD,,1979,M,82.24,83,230,240,247.5,247.5,170,180,183,183,250,260,270,270,700.5
3,Olof Arvidsson,Sweden,Masters 1,Raw,SBD,,1979,M,137.9,120+,267.5,280,287.5,287.5,177.5,182.5,-185,182.5,280,290,312.5,312.5,782.5
7,Francisco González Pastor,Spain,Masters 1,Raw,SBD,,1979,M,73.08,74,210,-217.5,-217.5,210,125,130,-132.5,130,210,220,-230,220,560
10,Ronny Schroeder,Germany,Masters 1,Raw,SBD,,1979,M,95.52,105,200,210,-220,210,152.5,157.5,-160,157.5,250,262.5,-267.5,262.5,630
9,Robert Hoepfner,Germany,Masters 1,Raw,SBD,,1979,M,126.8,120+,210,220,227.5,227.5,175,-185,-185,175,250,270,-272.5,270,672.5
9,Pietro Bernardi,Italy,Masters 1,Raw,SBD,,1979,M,92.88,93,-237.5,-242.5,245,245,132.5,-140,140,140,270,290,-300,290,675
6,Sharam Alborz,Sweden,Masters 1,Raw,SBD,,1980,M,73.78,74,172.5,182.5,190,190,120,127.5,-132.5,127.5,222.5,237.5,252.5,252.5,570
4,Helmut Purwanto,Germany,Masters 1,Raw,SBD,,1980,M,100.98,105,255,267.5,-272.5,267.5,-177.5,177.5,-182.5,177.5,260,275,-282.5,275,720
7,Jussi Harmaala,Finland,Masters 1,Raw,SBD,,1980,M,92.42,93,230,240,250,250,155,165,-170,165,250,270,-275,270,685
5,Jiří Völfel,Czechia,Masters 1,Raw,SBD,,1980,M,65.22,66,115,120,-127.5,120,100,-105,-105,100,145,150,155,155,375
16,Mikkel Porup Pedersen,Denmark,Masters 1,Raw,SBD,,1980,M,91.64,93,175,-187.5,-187.5,175,100,110,-115,110,200,215,240,240,525
2,Isidro Lopez Manzano,Spain,Masters 1,Raw,SBD,,1981,M,65.22,66,162.5,175,177.5,177.5,110,115,-117.5,115,207.5,222.5,-232.5,222.5,515
3,Linas Palivonas,Lithuania,Masters 1,Raw,SBD,,1981,M,119.44,120,190,205,212.5,212.5,195,202.5,205,205,210,230,262.5,262.5,680
4,Mark Fulton,UK,Masters 1,Raw,SBD,,1981,M,82.82,83,220,230,-235,230,140,145,-147.5,145,260,275,-287.5,275,650
1,Sébastien Hupfer,France,Masters 1,Raw,SBD,,1981,M,91.56,93,272.5,288,-300,288,160,165,-170,165,260,272.5,280,280,733
3,Simon Voakes,UK,Masters 1,Raw,SBD,,1981,M,65.72,66,152.5,162.5,170,170,112.5,117.5,-122.5,117.5,200,-210,212.5,212.5,500
7,Giedrius Šaulys,Lithuania,Masters 1,Raw,SBD,,1981,M,124.18,120+,250,267.5,-280,267.5,140,150,-155,150,250,270,275,275,692.5
5,Indrek Vait,Estonia,Masters 1,Raw,SBD,,1981,M,104,105,255,270,-277.5,270,142.5,150,152.5,152.5,265,280,290,290,712.5
DQ,Arvo Kaljapulk,Estonia,Masters 1,Raw,SBD,,1982,M,92.3,93,210,220,230,230,130,135,-140,135,-310,-310,-310,,
5,Mehmet Ali Deniz,Turkey,Masters 1,Raw,SBD,,1982,M,92.04,93,245,260,-270,260,152.5,160,-165,160,270,-280,-282.5,270,690
11,Pierre-Alain Mathieu,France,Masters 1,Raw,SBD,,1982,M,81.9,83,185,195,200,200,135,140,-142.5,140,230,240,-245,240,580
2,David White #1,UK,Masters 1,Raw,SBD,,1982,M,73.66,74,230,245,258,258,112.5,120,125,125,235,250,255,255,638
8,Simon Keil,Germany,Masters 1,Raw,SBD,,1982,M,73.28,74,180,187.5,-190,187.5,100,105,107.5,107.5,205,217.5,227.5,227.5,522.5
3,Ville Majava,Finland,Masters 1,Raw,SBD,,1982,M,103.2,105,225,245,252.5,252.5,170,180,185,185,270,285,300,300,737.5
2,Julien Idier,France,Masters 1,Raw,SBD,,1982,M,92.24,93,255,265,270,270,175,182.5,-187.5,182.5,-255,-255,255,255,707.5
4,Paul Doherty,UK,Masters 1,Raw,SBD,,1982,M,129.8,120+,260,277.5,285,285,150,160,165,165,-275,275,290,290,740
4,Claudio Forti,Italy,Masters 1,Raw,SBD,,1983,M,73.48,74,210,220,225,225,125,132.5,-135,132.5,235,250,-255,250,607.5
15,Kevin Van Parys,Belgium,Masters 1,Raw,SBD,,1983,M,91.62,93,190,200,-207.5,200,120,125,127.5,127.5,210,220,230,230,557.5
9,James Wilson #20,UK,Masters 1,Raw,SBD,,1983,M,103.62,105,235,247.5,-260,247.5,135,142.5,147.5,147.5,255,-275,-275,255,650
11,Jonas Vagtholm Willemoes Lundberg,Denmark,Masters 1,Raw,SBD,,1983,M,104.16,105,185,197.5,205,205,155,162.5,-167.5,162.5,255,-265,-265,255,622.5
6,Eduard Moreno Curto,Spain,Masters 1,Raw,SBD,,1983,M,101.26,105,230,240,247.5,247.5,152.5,160,165,165,270,280,285,285,697.5
13,Sascha Calleger,Germany,Masters 1,Raw,SBD,,1983,M,92.6,93,222.5,232.5,245,245,157.5,165,-170,165,252.5,-270,-270,252.5,662.5
3,Yngve Hopen,Norway,Masters 1,Raw,SBD,,1984,M,73.26,74,220,225,227.5,227.5,120,125,127.5,127.5,260,270,280,280,635
3,Johan Henriksson,Finland,Masters 1,Raw,SBD,,1984,M,82.74,83,245,-255,262.5,262.5,140,145,-150,145,265,282.5,-295,282.5,690
DQ,Lars Lund,Denmark,Masters 1,Raw,SBD,,1984,M,65.48,66,185,195,-202.5,195,127.5,-132.5,132.5,132.5,-200,-210,-210,,
4,Michalis Loutsis,Cyprus,Masters 1,Raw,SBD,,1984,M,115.9,120,235,250,260,260,165,175,182.5,182.5,200,220,235,235,677.5
1,Rubén Rico Martín,Spain,Masters 1,Raw,SBD,,1984,M,197.24,120+,350,370.5,380.5,380.5,215,225,233,233,312.5,337.5,-348,337.5,951
4,Páll Bragason,Iceland,Masters 4,Raw,SBD,,1948,M,82.82,83,77.5,82.5,87.5,87.5,57.5,62.5,65,65,102.5,110,115,115,267.5
3,Sæmundur Guðmundsson,Iceland,Masters 4,Raw,SBD,,1952,M,73.44,74,120,-125,-130,120,80,85,-87.5,85,155,167.5,-172.5,167.5,372.5
2,Antero Juntunen,Finland,Masters 4,Raw,SBD,,1954,M,82.72,83,145,155,-160,155,75,80,82.5,82.5,180,190,-215,190,427.5
6,John O'Dwyer,Ireland,Masters 3,Raw,SBD,,1955,M,113.48,120,150,-155,155,155,140,145,-150,145,160,175,182.5,182.5,482.5
8,Hordur Birkirsson,Iceland,Masters 3,Raw,SBD,,1958,M,73.46,74,140,160,-170,160,85,-95,-105,85,170,180,-190,180,425
6,Ismo Karisalo,Finland,Masters 3,Raw,SBD,,1961,M,82.86,83,160,175,180,180,115,-120,122.5,122.5,-180,190,-200,190,492.5
1,Rolf Hampel,Germany,Masters 3,Raw,SBD,,1961,M,81.96,83,205,222.5,,222.5,102.5,107.5,112.5,112.5,222.5,242.5,-261,242.5,577.5
5,Svend Bradtberg,Denmark,Masters 3,Raw,SBD,,1962,M,103.44,105,-180,185,202.5,202.5,107.5,112.5,-120,112.5,170,180,190,190,505
2,Frans van der Putten,Netherlands,Masters 3,Raw,SBD,,1962,M,102.08,105,215,225,230,230,175,-182.5,-182.5,175,210,-215,-215,210,615
4,Helgi Briem,Iceland,Masters 3,Raw,SBD,,1962,M,92.3,93,155,160,165,165,125,-130,130,130,-212.5,212.5,-217.5,212.5,507.5
11,Tommy Herheim,Norway,Masters 2,Raw,SBD,,1970,M,92.38,93,170,177.5,-182.5,177.5,125,-130,130,130,212.5,222.5,232.5,232.5,540
3,Saša Cvetković,Serbia,Masters 2,Raw,SBD,,1970,M,121.32,120+,275,285,-290,285,150,155,,155,270,-272.5,-272.5,270,710
11,Sturla Ólafsson,Iceland,Masters 2,Raw,SBD,,1971,M,102.3,105,160,170,180,180,110,-125,-125,110,200,-227.5,-227.5,200,490
9,Rudolf Kopcok,Slovakia,Masters 2,Raw,SBD,,1971,M,73.9,74,160,170,177.5,177.5,80,85,-90,85,-207.5,215,-230,215,477.5
7,Dave Worrall,Ireland,Masters 2,Raw,SBD,,1972,M,115.4,120,-210,210,230,230,157.5,165,-170,165,245,-255,-255,245,640
2,Sten Normanseth,Norway,Masters 2,Raw,SBD,,1972,M,128.94,120+,250,262.5,270,270,170,182.5,185,185,260,272.5,275,275,730
5,Warren Yelverton,Ireland,Masters 2,Raw,SBD,,1973,M,92.22,93,190,202.5,207.5,207.5,145,-152.5,152.5,152.5,245,262.5,-275,262.5,622.5
11,Tomasz Dębicki,Poland,Masters 2,Raw,SBD,,1974,M,82.2,83,-160,165,172.5,172.5,135,140,-145,140,-160,160,-205,160,472.5
4,Bert Lynskey,Ireland,Masters 2,Raw,SBD,,1974,M,130.16,120+,210,222.5,227.5,227.5,150,160,-165,160,250,267.5,275,275,662.5
6,Kaspars Didzis,Latvia,Masters 2,Raw,SBD,,1974,M,113.32,120,232.5,242.5,247.5,247.5,-137.5,142.5,-145,142.5,252.5,262.5,-270,262.5,652.5
10,Mathias Braun,Switzerland,Masters 1,Raw,SBD,,1977,M,82.14,83,210,-212.5,230,230,125,132.5,-137.5,132.5,205,220,-232.5,220,582.5
5,Tarmo Pärna,Estonia,Masters 1,Raw,SBD,,1978,M,128.9,120+,250,265,275,275,192.5,200,205,205,230,247.5,-262.5,247.5,727.5
DQ,Benedikt Björnsson,Iceland,Masters 1,Raw,SBD,,1978,M,91.12,93,200,220,-225,220,140,145,-150,145,-250,-270,-270,,
8,Mark Hodgett,UK,Masters 1,Raw,SBD,,1979,M,82.44,83,192.5,202.5,212.5,212.5,125,135,-140,135,265,275,-285,275,622.5
1,Jani Haapamäki,Finland,Masters 1,Raw,SBD,,1979,M,73.78,74,225,237.5,245,245,160,167.5,173,173,260,-282.5,-282.5,260,678
9,Brendan Gilligan,Ireland,Masters 1,Raw,SBD,,1980,M,81.52,83,215,-227.5,227.5,227.5,127.5,132.5,-135,132.5,230,242.5,252.5,252.5,612.5
5,Mark Dowling #1,Ireland,Masters 1,Raw,SBD,,1980,M,82.62,83,220,232.5,-240,232.5,122.5,125,-127.5,125,265,277.5,287.5,287.5,645
7,Jari Kaarnais,Finland,Masters 1,Raw,SBD,,1980,M,82,83,222.5,-235,-235,222.5,142.5,150,-155,150,252.5,-262.5,-262.5,252.5,625
1,Anthony McLeggan,Ireland,Masters 1,Raw,SBD,,1981,M,102.92,105,245,265,280,280,200,207.5,-212.5,207.5,300,320,-348,320,807.5
8,Kimmo Matilainen,Finland,Masters 1,Raw,SBD,,1982,M,153.74,120+,260,-280,-280,260,190,197.5,-202.5,197.5,-235,-235,235,235,692.5
1,Colin Power,Ireland,Masters 1,Raw,SBD,,1982,M,115.2,120,280,-282.5,300,300,190,197.5,202.5,202.5,285,300,312.5,312.5,815
6,Raymond Bruynaers,Netherlands,Masters 1,Raw,SBD,,1983,M,82.1,83,217.5,232.5,-242.5,232.5,137.5,145,-150,145,252.5,-272.5,-275,252.5,630
5,Torbjørn Sexe,Norway,Masters 1,Raw,SBD,,1983,M,108.24,120,180,-205,205,205,-135,140,-152.5,140,240,255,262.5,262.5,607.5
7,Heikki Kurvinen,Finland,Masters 1,Raw,SBD,,1983,M,103.9,105,-250,-255,270,270,165,-170,-170,165,250,-260,-260,250,685
10,Steven McGuire,Ireland,Masters 1,Raw,SBD,,1983,M,92.2,93,220,230,240,240,142.5,150,155,155,252.5,265,275,275,670
2,Anne Mari Clausen,Norway,Masters 4,Raw,SBD,,1942,F,64.98,69,50,55,57.5,57.5,37.5,40,-42.5,40,77.5,80,82.5,82.5,180
2,Miguelina Padrón Herrera,Spain,Masters 4,Raw,SBD,,1946,F,60.98,63,37.5,42.5,-47.5,42.5,27.5,30,32.5,32.5,47.5,55,57.5,57.5,132.5
2,Britten Fernström,Sweden,Masters 4,Raw,SBD,,1949,F,56.62,57,-72.5,-72.5,72.5,72.5,52.5,55.5,-56,55.5,105,107.5,110,110,238
1,Charito A Kløvstad,Norway,Masters 4,Raw,SBD,,1951,F,55.76,57,70,-80,80,80,37.5,42.5,-45,42.5,110,120,-125.5,120,242.5
1,Joy Follis,UK,Masters 4,Raw,SBD,,1952,F,48.8,52,45,50,-52.5,50,40,42.5,45,45,90,95,100,100,195
1,Hana Takáčová,Czechia,Masters 4,Raw,SBD,,1954,F,91.6,84+,115,-122.5,122.5,122.5,82.5,87.5,92.5,92.5,120,130,135,135,350
1,Marina Cornwall,UK,Masters 4,Raw,SBD,,1954,F,44.18,47,45,50,55,55,32.5,35,37.5,37.5,90,100,105,105,197.5
1,Susan Sabuda,UK,Masters 4,Raw,SBD,,1954,F,62.34,63,65,-70,-70,65,47.5,52.5,55,55,117.5,127.5,134,134,254
1,Melanie Lester,UK,Masters 4,Raw,SBD,,1954,F,65.76,69,-65,65,70,70,35,37.5,40,40,105,115,125,125,235
1,Sara Del Duca,Italy,Masters 4,Raw,SBD,,1954,F,71.68,76,-95,100,102.5,102.5,70,73,-75.5,73,140,150,-159,150,325.5
DQ,Kirsti Løken,Norway,Masters 4,Raw,SBD,,1954,F,68.4,69,-107.5,-110,-110,,57.5,60,65,65,130,-140,140,140,
DQ,Mairead Collins,Ireland,Masters 3,Raw,SBD,,1956,F,61.86,63,-107.5,-107.5,-107.5,,40,42.5,-45,42.5,110,117.5,122.5,122.5,
5,Brith Ediassen,Norway,Masters 3,Raw,SBD,,1957,F,93,84+,87.5,92.5,97.5,97.5,42.5,45,-50,45,115,122.5,-130,122.5,265
3,Mary Fusco,Ireland,Masters 3,Raw,SBD,,1957,F,74.32,76,105,112.5,115,115,57.5,60,-62.5,60,110,120,127.5,127.5,302.5
1,Caroline Cunniffe,Ireland,Masters 3,Raw,SBD,,1957,F,60.96,63,82.5,92.5,100,100,45,50,52.5,52.5,110,120,125,125,277.5
3,Jenny Hunter,UK,Masters 3,Raw,SBD,,1958,F,51.32,52,60,65,70,70,50,55,57.5,57.5,95,105,110,110,237.5
4,Vincenza Panacui,Italy,Masters 3,Raw,SBD,,1958,F,55.86,57,-92.5,-92.5,92.5,92.5,40,42.5,-45,42.5,132.5,140,-145,140,275
3,Valerie Dourley,UK,Masters 3,Raw,SBD,,1959,F,59.1,63,105,-112.5,-112.5,105,40,42.5,-47.5,42.5,107.5,112.5,115,115,262.5
3,Silja Mansikka-Aho,Finland,Masters 3,Raw,SBD,,1959,F,76.52,84,-85,-85,85,85,35,-37.5,37.5,37.5,125,135,145,145,267.5
DQ,Silvana Tancredi García,Spain,Masters 3,Raw,SBD,,1959,F,46.5,47,-77.5,-77.5,-77.5,,,,,,,,,,
2,Linda Thorne,UK,Masters 3,Raw,SBD,,1959,F,68.28,69,72.5,77.5,82.5,82.5,42.5,47.5,52.5,52.5,135,142.5,147.5,147.5,282.5
4,Lydie Grouet Molling,France,Masters 3,Raw,SBD,,1960,F,57.18,63,75,-80,80,80,55,-57.5,57.5,57.5,105,112.5,117.5,117.5,255
1,Elsa Pálsdóttir,Iceland,Masters 3,Raw,SBD,,1960,F,74.62,76,135,145,-152.5,145,65,-70,-70,65,160,165,-172.5,165,375
4,Isodora Elsebeth Annemarie Nielsen,Denmark,Masters 3,Raw,SBD,,1960,F,83.42,84,80,-82.5,82.5,82.5,42.5,45,47.5,47.5,100,110,115,115,245
2,Ann Jordebo,Sweden,Masters 3,Raw,SBD,,1960,F,83.62,84,112.5,120,125,125,60,62.5,-65,62.5,125,137.5,-142.5,137.5,325
4,Anne Hellem,Norway,Masters 3,Raw,SBD,,1961,F,93.84,84+,75,85,95,95,60,62.5,65,65,115,125,-132.5,125,285
3,Monika Norberg,Sweden,Masters 3,Raw,SBD,,1961,F,99.02,84+,110,-117.5,122.5,122.5,75,-80,80,80,140,157.5,-172.5,157.5,360
2,Leena Jokitalo,Finland,Masters 3,Raw,SBD,,1961,F,55.08,57,110,115.5,120,120,52.5,55,-57.5,55,125,132.5,-145,132.5,307.5
5,Birgit Strehlow,Germany,Masters 3,Raw,SBD,,1962,F,61.42,63,75,82.5,87.5,87.5,52.5,55,57.5,57.5,95,102.5,107.5,107.5,252.5
2,Carina Jönsson,Sweden,Masters 3,Raw,SBD,,1962,F,50.6,52,80,85,-90,85,40,45,-50,45,110,115,-122.5,115,245
3,Jannika Ingersdotter,Sweden,Masters 3,Raw,SBD,,1962,F,66.52,69,70,75,80,80,-60,62.5,65,65,105,110,115,115,260
1,Deborah Tiernan,UK,Masters 3,Raw,SBD,,1963,F,56.7,57,107.5,-115,115,115,65,-67.5,-67.5,65,132.5,140,-145,140,320
3,Denise Bird,UK,Masters 3,Raw,SBD,,1963,F,55.7,57,97.5,102.5,-107.5,102.5,52.5,55,-57.5,55,127.5,-132.5,132.5,132.5,290
1,Marzia Girardi,Italy,Masters 3,Raw,SBD,,1963,F,49.28,52,95,-100,-100,95,47.5,50,52.5,52.5,137.5,145,-151,145,292.5
1,Catherine Davies,UK,Masters 3,Raw,SBD,,1963,F,81.24,84,115,120,125,125,55,60,-65,60,137.5,142.5,150,150,335
2,Jackie Blasbery,UK,Masters 3,Raw,SBD,,1963,F,97.76,84+,105,115,125,125,75,82.5,87.5,87.5,145,160,170,170,382.5
2,Siri Bech-Hanssen,Norway,Masters 3,Raw,SBD,,1964,F,61.36,63,85,90,92.5,92.5,45,47.5,50,50,122.5,127.5,-132.5,127.5,270
2,Outi Nurmilaukas,Finland,Masters 3,Raw,SBD,,1964,F,74,76,95,105,112.5,112.5,70,72.5,-75,72.5,165,172.5,178.5,178.5,363.5
1,Ulla Nancy Jensen,Denmark,Masters 3,Raw,SBD,,1964,F,68.38,69,92.5,97.5,102.5,102.5,52.5,57.5,60,60,140,147.5,153.5,153.5,316
1,Katarina Beremark,Sweden,Masters 3,Raw,SBD,,1964,F,103.24,84+,120,126.5,130.5,130.5,85,90,-93,90,162.5,173.5,-176,173.5,394
1,Marianne Tynelius,Sweden,Masters 3,Raw,SBD,,1964,F,46.76,47,75,80.5,83,83,47.5,-50,-50,47.5,90,95,-100,95,225.5
8,Kari Holmen Sunnarvik,Norway,Masters 2,Raw,SBD,,1966,F,66.48,69,107.5,-110,110,110,-70,70,-72.5,70,120,127.5,-132.5,127.5,307.5
5,Åsa Blomgren,Sweden,Masters 2,Raw,SBD,,1966,F,68.14,69,120,127.5,132.5,132.5,65,70,-72.5,70,150,160,-170,160,362.5
3,Heather Tagg,UK,Masters 2,Raw,SBD,,1966,F,68.84,69,137.5,145,150,150,67.5,72.5,75,75,167.5,178,188.5,188.5,413.5
8,Sophie Aprile,France,Masters 2,Raw,SBD,,1966,F,56.86,57,85,90,95,95,37.5,40,42.5,42.5,120,125,130,130,267.5
4,Karen Barry,Ireland,Masters 2,Raw,SBD,,1966,F,68.26,69,-140,-140,140,140,75,80,-82.5,80,140,150,-160,150,370
3,Francesca Brembilla,Italy,Masters 2,Raw,SBD,,1966,F,62.64,63,132.5,-135,135,135,67.5,-70,70,70,145,152.5,-160,152.5,357.5
1,Noémie Girot,France,Masters 2,Raw,SBD,,1967,F,62.04,63,135,141,-145,141,85,87.5,-90,87.5,170,175,-180,175,403.5
5,Helen Twomey,Ireland,Masters 2,Raw,SBD,,1967,F,75.3,76,110,117.5,120,120,67.5,70,-72.5,70,150,160,-167.5,160,350
7,Khrys Kyriacou,UK,Masters 2,Raw,SBD,,1967,F,62.86,63,105,115,-122.5,115,65,70,-72.5,70,125,130,-135,130,315
1,Lapanda Mampikin,Netherlands,Masters 2,Raw,SBD,,1967,F,83.1,84,160,170,-173.5,170,90,95,97.5,97.5,198.5,208,218,218,485.5
1,Magdolna Petróczki,Hungary,Masters 2,Raw,SBD,,1968,F,51.5,52,75,82.5,87.5,87.5,65,70,72.5,72.5,115,122.5,135,135,295
1,Karen Burns,UK,Masters 2,Raw,SBD,,1968,F,56.36,57,115,120,125,125,57.5,62.5,65,65,150,157.5,160,160,350
7,Florence Leccese,France,Masters 2,Raw,SBD,,1969,F,66.58,69,125,130,135,135,75,77.5,-80,77.5,115,120,-125,120,332.5
3,Jane Kvelland Berntsen,Norway,Masters 2,Raw,SBD,,1969,F,56.7,57,117.5,-122.5,122.5,122.5,62.5,67.5,-70,67.5,117.5,127.5,135,135,325
4,Angie Clark,Switzerland,Masters 2,Raw,SBD,,1969,F,101,84+,-130,130,142.5,142.5,90,-95,95,95,162.5,170,177.5,177.5,415
1,Elena Borgatti,Italy,Masters 2,Raw,SBD,,1969,F,46.36,47,100,105,110,110,57.5,60,62.5,62.5,140,147.5,-156,147.5,320
3,Heidi Hille Arnesen,Norway,Masters 2,Raw,SBD,,1970,F,83.92,84,165,173,-180.5,173,92.5,97.5,100,100,180,199,-205,199,472
5,Lisa Herrington,UK,Masters 2,Raw,SBD,,1970,F,82.02,84,127.5,132.5,137.5,137.5,70,75,77.5,77.5,175,185,190,190,405
3,Gillian Lomax,UK,Masters 2,Raw,SBD,,1970,F,101.3,84+,147.5,152.5,157.5,157.5,77.5,82.5,-90,82.5,167.5,177.5,-182.5,177.5,417.5
DQ,Terrie Redmore,UK,Masters 2,Raw,SBD,,1970,F,68.4,69,-125,125,-135,125,70,75,-80,75,-100,-100,-100,,
3,Géraldine Verlaine,France,Masters 2,Raw,SBD,,1970,F,51.54,52,82.5,85,87.5,87.5,67.5,70,-72.5,70,115,120,125,125,282.5
10,Linda Lanzrath,Germany,Masters 2,Raw,SBD,,1970,F,85.14,84+,95,105,-112.5,105,47.5,50,-52.5,50,125,132.5,137.5,137.5,292.5
1,Barbara Claassen,Netherlands,Masters 2,Raw,SBD,,1971,F,129.9,84+,152.5,162.5,170,170,72.5,77.5,-80,77.5,170,-177.5,177.5,177.5,425
7,Ellinor Kempe,Sweden,Masters 2,Raw,SBD,,1971,F,56.88,57,102.5,110,-115,110,47.5,-52.5,-52.5,47.5,120,127.5,132.5,132.5,290
4,Janne Bruhn-Henriksen,Norway,Masters 2,Raw,SBD,,1971,F,72.72,76,115,122.5,130,130,70,75,77.5,77.5,145,155,157.5,157.5,365
9,Kathrin Herold,Germany,Masters 2,Raw,SBD,,1971,F,61.8,63,65,70,72.5,72.5,50,-52.5,-52.5,50,112.5,117.5,122.5,122.5,245
4,Jessica Jading,Sweden,Masters 2,Raw,SBD,,1971,F,61.32,63,112.5,117.5,122.5,122.5,57.5,-62.5,-62.5,57.5,160,-171,-171,160,340
2,Mervi Sirkiä,Finland,Masters 2,Raw,SBD,,1972,F,51.76,52,87.5,92.5,-95,92.5,57.5,60,62.5,62.5,125,130,-142.5,130,285
1,Mia Öhrnell,Sweden,Masters 2,Raw,SBD,,1972,F,75.36,76,157.5,166,171,171,70,75,-80,75,155,-165,-165,155,401
5,Nina Honka,Finland,Masters 2,Raw,SBD,,1972,F,56.52,57,105,107.5,110,110,60,62.5,65,65,140,147.5,-152.5,147.5,322.5
6,Raquel Martin Tomas,Spain,Masters 2,Raw,SBD,,1972,F,68.26,69,120,127.5,-132.5,127.5,60,65,-67.5,65,150,-160,160,160,352.5
5,Sharon Holmes #1,UK,Masters 2,Raw,SBD,,1972,F,62.22,63,115,122.5,127.5,127.5,65,70,-75,70,135,142.5,-147.5,142.5,340
8,Olga Dell,Germany,Masters 2,Raw,SBD,,1972,F,83.56,84,125,132.5,137.5,137.5,60,-65,-65,60,137.5,147.5,155,155,352.5
10,Marcela Borrego Marvassio,Spain,Masters 2,Raw,SBD,,1972,F,62.84,63,75,-80,-80,75,47.5,50,52.5,52.5,92.5,105,-115,105,232.5
8,Tamzen Malone,Ireland,Masters 2,Raw,SBD,,1972,F,92.92,84+,105,112.5,117.5,117.5,-67.5,67.5,72.5,72.5,117.5,130,142.5,142.5,332.5
6,Lorraine McKenna,Ireland,Masters 2,Raw,SBD,,1973,F,83.82,84,152.5,157.5,-162.5,157.5,62.5,65,-67.5,65,160,170,175,175,397.5
2,Guðný Ásta Snorradóttir,Iceland,Masters 2,Raw,SBD,,1973,F,108.42,84+,150,-157.5,157.5,157.5,87.5,92.5,97.5,97.5,160,167.5,-172.5,167.5,422.5
6,Hege Velten,Norway,Masters 2,Raw,SBD,,1973,F,62.54,63,110,117.5,122.5,122.5,60,62.5,65,65,132.5,-140,145,145,332.5
2,Anna Sashegyi,Hungary,Masters 2,Raw,SBD,,1973,F,74.62,76,122.5,132.5,142.5,142.5,72.5,77.5,80,80,145,155,170,170,392.5
9,Harmath Monika,Hungary,Masters 2,Raw,SBD,,1973,F,106.14,84+,-125,125,-142.5,125,80,85,87.5,87.5,120,-132.5,-137.5,120,332.5
7,Montse Ramos Vila,Spain,Masters 2,Raw,SBD,,1973,F,74.82,76,130,-132.5,-135,130,55,-60,-60,55,135,145,-147.5,145,330
8,Maria Laura Lozano Requelme,Spain,Masters 2,Raw,SBD,,1973,F,62.12,63,85,92.5,-97.5,92.5,42.5,-45,-45,42.5,110,115,122.5,122.5,257.5
5,Dagmar Mimra,Austria,Masters 2,Raw,SBD,,1973,F,97.5,84+,132.5,140,142.5,142.5,75,80,-85,80,147.5,157.5,-167.5,157.5,380
11,Eulalia Baltrons Vieta,Spain,Masters 2,Raw,SBD,,1973,F,86.12,84+,100,110,120,120,30,,,30,125,140,-145,140,290
6,Sarah Flynn,Ireland,Masters 2,Raw,SBD,,1973,F,56.42,57,107.5,112.5,117.5,117.5,50,52.5,55,55,122.5,132.5,140,140,312.5
1,Dr. Brita Fritsch,Germany,Masters 2,Raw,SBD,,1973,F,68.64,69,140,150,156,156,80,87.5,92.5,92.5,160,170,177.5,177.5,426
4,Hilde Dretvik,Norway,Masters 2,Raw,SBD,,1974,F,83.36,84,137.5,145,-150,145,80,85,90,90,162.5,170,180,180,415
4,Noelia Aliste Sánchez,Spain,Masters 2,Raw,SBD,,1974,F,55.72,57,105,107.5,-110,107.5,60,-65,-65,60,145,150,155,155,322.5
7,Þórunn Brynja Jónasdóttir,Iceland,Masters 2,Raw,SBD,,1974,F,82.5,84,120,127.5,132.5,132.5,77.5,82.5,85,85,140,147.5,-152.5,147.5,365
2,Katja Kärkkäinen,Finland,Masters 2,Raw,SBD,,1974,F,61.72,63,125,-132.5,132.5,132.5,77.5,82.5,85,85,135,140,145,145,362.5
2,Mila Cuevas Mulero,Spain,Masters 2,Raw,SBD,,1974,F,83.92,84,155,162.5,167.5,167.5,87.5,90,92.5,92.5,195,207.5,217.5,217.5,477.5
3,Malin Wahlberg,Sweden,Masters 2,Raw,SBD,,1974,F,74.12,76,135,140,150,150,75,80,82.5,82.5,145,150,157.5,157.5,390
4,Sanna-Mari Jauhola,Finland,Masters 2,Raw,SBD,,1974,F,50.68,52,82.5,85,87.5,87.5,37.5,42.5,47.5,47.5,95,105,-115,105,240
7,Aurelia Perednis,Norway,Masters 2,Raw,SBD,,1974,F,93.5,84+,125,130,135,135,67.5,70,72.5,72.5,142.5,152.5,160,160,367.5
2,Colette Haddon,Netherlands,Masters 2,Raw,SBD,,1974,F,68,69,147.5,155,158,158,75,77.5,-80,77.5,167.5,177.5,180.5,180.5,416
6,Marion Kearns,Ireland,Masters 2,Raw,SBD,,1974,F,74.08,76,120,125,-130,125,57.5,62.5,65,65,132.5,145,152.5,152.5,342.5
6,Emma Kiely,Ireland,Masters 2,Raw,SBD,,1974,F,111.8,84+,110,117.5,125,125,72.5,77.5,80,80,162.5,175,-180,175,380
2,Kimberly Ellis,Belgium,Masters 2,Raw,SBD,,1974,F,56.38,57,105,110,115,115,67.5,-70,70,70,137.5,145,-152.5,145,330
4,Jenny Wik Norling,Sweden,Masters 1,Raw,SBD,,1975,F,126.14,84+,170,180,-185,180,102.5,107.5,-112.5,107.5,167.5,177.5,182.5,182.5,470
7,Solveig Mehlum Teppen,Norway,Masters 1,Raw,SBD,,1975,F,56.22,57,90,95,100,100,-65,65,72.5,72.5,130,142.5,152.5,152.5,325
5,Rosemonde Afanou,France,Masters 1,Raw,SBD,,1975,F,75.14,76,127.5,135,142.5,142.5,65,-70,-70,65,170,177.5,-185,177.5,385
7,Anne-Mieke Nuyts,Belgium,Masters 1,Raw,SBD,,1975,F,72.62,76,117.5,-125,-125,117.5,-70,70,72.5,72.5,160,167.5,170,170,360
10,Therese Eriksen,Norway,Masters 1,Raw,SBD,,1976,F,74.2,76,100,105,110,110,45,47.5,50,50,110,117.5,-125,117.5,277.5
3,Marianne Bouvard,France,Masters 1,Raw,SBD,,1976,F,46.18,47,97.5,102.5,-105,102.5,65,67.5,-70,67.5,117.5,-122.5,,117.5,287.5
8,Anett Kiss,Hungary,Masters 1,Raw,SBD,,1976,F,62.9,63,122.5,127.5,-132.5,127.5,70,75,80,80,165,175,177.5,177.5,385
5,Sandra Burke,Ireland,Masters 1,Raw,SBD,,1976,F,56.56,57,110,115,120,120,57.5,60,62.5,62.5,165,170,-172.5,170,352.5
1,Luisa Arienta,Italy,Masters 1,Raw,SBD,,1976,F,50.68,52,125,132.5,140,140,55,57.5,60,60,155,167.5,-175,167.5,367.5
3,Helen Hughes #1,UK,Masters 1,Raw,SBD,,1976,F,56.62,57,117.5,125,127.5,127.5,82.5,87.5,-90,87.5,147.5,157.5,165,165,380
2,Karen Tvedt,Norway,Masters 1,Raw,SBD,,1977,F,81.92,84,152.5,162.5,170,170,97.5,102.5,105,105,172.5,-185,-185,172.5,447.5
5,Raquel de la Calle Labarzana,Spain,Masters 1,Raw,SBD,,1977,F,69,69,157.5,165,-176,165,-75,80,-85,80,160,-170,-170,160,405
2,Amanda Planas Domínguez,Spain,Masters 1,Raw,SBD,,1977,F,68.72,69,130,137.5,145,145,87.5,92.5,97.5,97.5,180,187.5,-192.5,187.5,430
6,Yusimi Carbonell Cidre,Spain,Masters 1,Raw,SBD,,1978,F,83.52,84,122.5,127.5,132.5,132.5,70,72.5,75,75,172.5,-185,-185,172.5,380
4,Aileen Muldoon,Ireland,Masters 1,Raw,SBD,,1978,F,75.88,76,135,142.5,147.5,147.5,80,82.5,-85,82.5,165,175,182.5,182.5,412.5
3,Ivana Žonja,Croatia,Masters 1,Raw,SBD,,1978,F,51.54,52,107.5,112.5,120,120,52.5,55,57.5,57.5,112.5,120,130,130,307.5
4,Rima Baki,UK,Masters 1,Raw,SBD,,1978,F,62.9,63,145,152.5,157.5,157.5,92.5,97.5,100.5,100.5,155,165,-170,165,423
6,Monica Dahle,Norway,Masters 1,Raw,SBD,,1978,F,56.22,57,120,125,130,130,70,75,-77.5,75,115,120,125,125,330
5,Liisa Asanti,Finland,Masters 1,Raw,SBD,,1978,F,130.76,84+,160,-170,170,170,90,95,-100,95,192.5,202.5,-210,202.5,467.5
11,Anne Bernard,France,Masters 1,Raw,SBD,,1978,F,61.52,63,110,115,-117.5,115,60,62.5,-65,62.5,155,-165,165,165,342.5
3,Mirjam Loerakker,Netherlands,Masters 1,Raw,SBD,,1979,F,83.7,84,160,167.5,172.5,172.5,80,82.5,85,85,170,180,187.5,187.5,445
7,Maria Garcia Fernandez,Spain,Masters 1,Raw,SBD,,1979,F,51.72,52,95,-102.5,-102.5,95,42.5,45,47.5,47.5,115,125,-137.5,125,267.5
7,Regina Myler,Ireland,Masters 1,Raw,SBD,,1979,F,95.68,84+,165,175,-182.5,175,75,82.5,85,85,175,185,195,195,455
4,Linda Engeskaug,Norway,Masters 1,Raw,SBD,,1979,F,45.56,47,80,-85,-85,80,42.5,45,47.5,47.5,102.5,110,-112.5,110,237.5
DQ,Abigail Marrero,Spain,Masters 1,Raw,SBD,,1979,F,72.96,76,117.5,125,-130,125,72.5,-75,-75,72.5,-180,-180,-180,,
9,Hrefna Johannsdottir,Iceland,Masters 1,Raw,SBD,,1980,F,74.92,76,105,110,112.5,112.5,57.5,60,-62.5,60,112.5,117.5,120,120,292.5
10,Evelyne Roos,Belgium,Masters 1,Raw,SBD,,1980,F,100.96,84+,137.5,147.5,152.5,152.5,67.5,72.5,-77.5,72.5,155,-157.5,-175,155,380
6,Noreen McDermott,Ireland,Masters 1,Raw,SBD,,1980,F,62.22,63,122.5,-132.5,132.5,132.5,80,85,90,90,147.5,157.5,165,165,387.5
6,Ana Marinković,Croatia,Masters 1,Raw,SBD,,1980,F,51.16,52,92.5,97.5,102.5,102.5,45,47.5,-50,47.5,112.5,120,125,125,275
3,Genevieve Collins,UK,Masters 1,Raw,SBD,,1980,F,74.12,76,152.5,160,-167.5,160,87.5,92.5,-95,92.5,165,172.5,177.5,177.5,430
5,Caroline Hoff Hansen,Norway,Masters 1,Raw,SBD,,1981,F,51.22,52,90,95,100,100,57.5,60,62.5,62.5,105,115,-125,115,277.5
3,Eilen Pollen,Norway,Masters 1,Raw,SBD,,1981,F,68.38,69,140,-147.5,147.5,147.5,95,97.5,-100,97.5,160,167.5,172.5,172.5,417.5
12,Therese Opsahl,Norway,Masters 1,Raw,SBD,,1981,F,59.54,63,107.5,115,117.5,117.5,55,60,62.5,62.5,142.5,150,155,155,335
4,Ira Neitzel,Germany,Masters 1,Raw,SBD,,1981,F,51.12,52,100,107.5,-110,107.5,57.5,-60,-60,57.5,100,107.5,112.5,112.5,277.5
1,Barbara Deidda,Italy,Masters 1,Raw,SBD,,1981,F,45.88,47,115,120,-122.5,120,62.5,-65,65,65,140,-147.5,147.5,147.5,332.5
9,Ragnheiður Kr. Sigurðardóttir,Iceland,Masters 1,Raw,SBD,,1981,F,61.78,63,125,130,132.5,132.5,82.5,85,87.5,87.5,140,147.5,152.5,152.5,372.5
1,Elise Rummens,Belgium,Masters 1,Raw,SBD,,1981,F,56.22,57,127.5,132.5,137.5,137.5,67.5,70,-72.5,70,180,190,-200.5,190,397.5
9,Tetyana Holm,Germany,Masters 1,Raw,SBD,,1981,F,94.52,84+,142.5,152.5,-160,152.5,80,85,87.5,87.5,142.5,150,-157.5,150,390
10,Evelien Artoos,Belgium,Masters 1,Raw,SBD,,1981,F,61.36,63,125,135,-140,135,62.5,67.5,70,70,145,155,160,160,365
13,Soila Ranta,Finland,Masters 1,Raw,SBD,,1982,F,61.98,63,-122.5,122.5,-127.5,122.5,67.5,-72.5,72.5,72.5,127.5,135,-140,135,330
7,Pernilla Sundberg,Sweden,Masters 1,Raw,SBD,,1982,F,62.4,63,147.5,152.5,-157.5,152.5,70,75,-80,75,145,155,160,160,387.5
2,Androulla Papakonstantinou,Cyprus,Masters 1,Raw,SBD,,1982,F,73.6,76,-150,152.5,-157.5,152.5,95,102.5,-110,102.5,175,182.5,187.5,187.5,442.5
6,Mariana Simion Rönngårdh,Sweden,Masters 1,Raw,SBD,,1982,F,75.06,76,120,125,130,130,75,-80,80,80,150,157.5,-162.5,157.5,367.5
7,Anna Ranki,Finland,Masters 1,Raw,SBD,,1982,F,81.82,84,132.5,142.5,-147.5,142.5,72.5,75,-77.5,75,137.5,145,152.5,152.5,370
5,Heidi Bäckström,Finland,Masters 1,Raw,SBD,,1982,F,81.46,84,155,165,-170,165,90,-92.5,-92.5,90,165,-175,-175,165,420
1,Wendy MacFarlane,UK,Masters 1,Raw,SBD,,1982,F,83.62,84,165,172.5,177.5,177.5,82.5,87.5,-92.5,87.5,182.5,190,-192.5,190,455
2,Marta Fernandez Ramirez,Spain,Masters 1,Raw,SBD,,1982,F,42.7,47,95,102.5,105,105,50,52.5,55,55,117.5,122.5,127.5,127.5,287.5
8,Branimira Novšak,Croatia,Masters 1,Raw,SBD,,1982,F,72.48,76,-115,115,120,120,60,-65,-65,60,120,125,132.5,132.5,312.5
3,Hannah Yardy,UK,Masters 1,Raw,SBD,,1982,F,62.62,63,-145,145,155,155,85,90,95,95,175,187.5,-200,187.5,437.5
6,Joanne Coogan,Ireland,Masters 1,Raw,SBD,,1982,F,67.94,69,-135,135,-142.5,135,82.5,-87.5,-87.5,82.5,155,165,-170,165,382.5
4,Olga Nieminen,Finland,Masters 1,Raw,SBD,,1982,F,67.62,69,152.5,157.5,160,160,80,-82.5,-85,80,165,-175,-175,165,405
4,Margaret Carey #1,Ireland,Masters 1,Raw,SBD,,1982,F,83,84,152.5,162.5,167.5,167.5,77.5,82.5,85,85,165,175,185,185,437.5
1,Allegra Romussi,Italy,Masters 1,Raw,SBD,,1983,F,61.78,63,152.5,160,165,165,87.5,90,92.5,92.5,175,185,190,190,447.5
2,Zoraida Bermúdez Doce,Spain,Masters 1,Raw,SBD,,1983,F,56.58,57,127.5,135,140,140,87.5,90,92.5,92.5,147.5,-157.5,157.5,157.5,390
3,Claire Roberts,UK,Masters 1,Raw,SBD,,1983,F,97.26,84+,170,185,-190,185,95,100,102.5,102.5,207.5,217.5,-231,217.5,505
4,Helen Engberg,Sweden,Masters 1,Raw,SBD,,1983,F,54.52,57,125,132.5,137.5,137.5,67.5,72.5,-75,72.5,147.5,157.5,-170,157.5,367.5
5,Linn Malmsten,Sweden,Masters 1,Raw,SBD,,1983,F,62.74,63,125,130,135,135,77.5,82.5,85,85,160,170,175,175,395
2,Lenka Pilnikova,UK,Masters 1,Raw,SBD,,1983,F,51.1,52,120,125,127.5,127.5,75,77.5,80,80,135,142.5,-150,142.5,350
11,Buddy Schwellinger,Spain,Masters 1,Raw,SBD,,1983,F,113.64,84+,120,-130,-130,120,-72.5,72.5,82.5,82.5,145,157.5,162.5,162.5,365
1,Rebecca Coggle,UK,Masters 1,Raw,SBD,,1983,F,144.96,84+,200,-210,218,218,115,120,127.5,127.5,155,165,172.5,172.5,518
2,Anna Wieczorek,Poland,Masters 1,Raw,SBD,,1984,F,96.78,84+,-195,195,210,210,100,105,-110,105,190,200,-207.5,200,515
2,Johanna Kankus-Mikkola,Finland,Masters 1,Raw,SBD,,1984,F,62.74,63,165.5,176,180.5,180.5,92.5,97.5,100,100,155,165,-170,165,445.5
6,Zuzana Bitterová,Czechia,Masters 1,Raw,SBD,,1984,F,112.9,84+,165,175,185,185,90,97.5,102.5,102.5,160,-170,170,170,457.5
1,Friederike Hoppe,Germany,Masters 1,Raw,SBD,,1984,F,75.52,76,160,167.5,170,170,-102.5,102.5,107.5,107.5,172.5,180,185,185,462.5
1,Frida Wittberg,Sweden,Masters 1,Raw,SBD,,1984,F,66.38,69,165,175.5,180.5,180.5,80,85,90,90,180,195,202.5,202.5,473
8,Clare Patterson,Ireland,Masters 1,Raw,SBD,,1984,F,97.76,84+,150,160,167.5,167.5,127.5,135,-140,135,145,150,-155,150,452.5
